﻿
DisplayName "The World Tree 3F"



EVENT   1
 PAGE   1
  250(bytes(0x04,0x08,0x6f,0x3a,0x0c,0x52,0x50,0x47,0x3a,0x3a,0x53,0x45,0x08,0x3a,0x0a,0x40,0x6e,0x61,0x6d,0x65,0x49,0x22,0x09,0x4d,0x6f,0x76,0x65,0x06,0x3a,0x06,0x45,0x54,0x3a,0x0b,0x40,0x70,0x69,0x74,0x63,0x68,0x69,0x69,0x3a,0x0c,0x40,0x76,0x6f,0x6c,0x75,0x6d,0x65,0x69,0x55))
  TeleportPlayer(0,305,29,10,8,0)
  0()



EVENT   2
 PAGE   1
  250(bytes(0x04,0x08,0x6f,0x3a,0x0c,0x52,0x50,0x47,0x3a,0x3a,0x53,0x45,0x08,0x3a,0x0a,0x40,0x6e,0x61,0x6d,0x65,0x49,0x22,0x09,0x4d,0x6f,0x76,0x65,0x06,0x3a,0x06,0x45,0x54,0x3a,0x0b,0x40,0x70,0x69,0x74,0x63,0x68,0x69,0x69,0x3a,0x0c,0x40,0x76,0x6f,0x6c,0x75,0x6d,0x65,0x69,0x55))
  TeleportPlayer(0,305,39,21,8,0)
  0()



EVENT   3
 PAGE   1
  250(bytes(0x04,0x08,0x6f,0x3a,0x0c,0x52,0x50,0x47,0x3a,0x3a,0x53,0x45,0x08,0x3a,0x0a,0x40,0x6e,0x61,0x6d,0x65,0x49,0x22,0x09,0x4d,0x6f,0x76,0x65,0x06,0x3a,0x06,0x45,0x54,0x3a,0x0b,0x40,0x70,0x69,0x74,0x63,0x68,0x69,0x69,0x3a,0x0c,0x40,0x76,0x6f,0x6c,0x75,0x6d,0x65,0x69,0x55))
  TeleportPlayer(0,305,38,38,8,0)
  0()



EVENT   4
 PAGE   1
  250(bytes(0x04,0x08,0x6f,0x3a,0x0c,0x52,0x50,0x47,0x3a,0x3a,0x53,0x45,0x08,0x3a,0x0a,0x40,0x6e,0x61,0x6d,0x65,0x49,0x22,0x09,0x4d,0x6f,0x76,0x65,0x06,0x3a,0x06,0x45,0x54,0x3a,0x0b,0x40,0x70,0x69,0x74,0x63,0x68,0x69,0x69,0x3a,0x0c,0x40,0x76,0x6f,0x6c,0x75,0x6d,0x65,0x69,0x55))
  TeleportPlayer(0,305,17,34,8,0)
  0()



EVENT   5
 PAGE   1
  If(12,"unlock_level < 1")
   ShowMessageFace("",0,0,2,1)
   ShowMessage("The chest is locked.")
   EndEventProcessing()
   0()
  EndIf()
  250(bytes(0x04,0x08,0x6f,0x3a,0x0c,0x52,0x50,0x47,0x3a,0x3a,0x53,0x45,0x08,0x3a,0x0a,0x40,0x6e,0x61,0x6d,0x65,0x49,0x22,0x0a,0x43,0x68,0x65,0x73,0x74,0x06,0x3a,0x06,0x45,0x54,0x3a,0x0b,0x40,0x70,0x69,0x74,0x63,0x68,0x69,0x69,0x3a,0x0c,0x40,0x76,0x6f,0x6c,0x75,0x6d,0x65,0x69,0x55))
  205(0,bytes(0x04,0x08,0x6f,0x3a,0x13,0x52,0x50,0x47,0x3a,0x3a,0x4d,0x6f,0x76,0x65,0x52,0x6f,0x75,0x74,0x65,0x09,0x3a,0x0c,0x40,0x72,0x65,0x70,0x65,0x61,0x74,0x46,0x3a,0x0f,0x40,0x73,0x6b,0x69,0x70,0x70,0x61,0x62,0x6c,0x65,0x46,0x3a,0x0a,0x40,0x77,0x61,0x69,0x74,0x54,0x3a,0x0a,0x40,0x6c,0x69,0x73,0x74,0x5b,0x0b,0x6f,0x3a,0x15,0x52,0x50,0x47,0x3a,0x3a,0x4d,0x6f,0x76,0x65,0x43,0x6f,0x6d,0x6d,0x61,0x6e,0x64,0x07,0x3a,0x0a,0x40,0x63,0x6f,0x64,0x65,0x69,0x29,0x3a,0x10,0x40,0x70,0x61,0x72,0x61,0x6d,0x65,0x74,0x65,0x72,0x73,0x5b,0x00,0x6f,0x3b,0x0a,0x07,0x3b,0x0b,0x69,0x16,0x3b,0x0c,0x5b,0x00,0x6f,0x3b,0x0a,0x07,0x3b,0x0b,0x69,0x14,0x3b,0x0c,0x5b,0x06,0x69,0x08,0x6f,0x3b,0x0a,0x07,0x3b,0x0b,0x69,0x17,0x3b,0x0c,0x5b,0x00,0x6f,0x3b,0x0a,0x07,0x3b,0x0b,0x69,0x14,0x3b,0x0c,0x5b,0x06,0x69,0x08,0x6f,0x3b,0x0a,0x07,0x3b,0x0b,0x69,0x00,0x3b,0x0c,0x5b,0x00))
  ChangeSelfSwitch("A",0)
  ChangeInventoryArmor(88,0,0,1)
  0()
 PAGE   2
  // condition: self-switch A is ON
  0()



EVENT   6
 PAGE   1
  If(12,"unlock_level < 2")
   ShowMessageFace("",0,0,2,1)
   ShowMessage("The chest is locked.")
   EndEventProcessing()
   0()
  EndIf()
  250(bytes(0x04,0x08,0x6f,0x3a,0x0c,0x52,0x50,0x47,0x3a,0x3a,0x53,0x45,0x08,0x3a,0x0a,0x40,0x6e,0x61,0x6d,0x65,0x49,0x22,0x0a,0x43,0x68,0x65,0x73,0x74,0x06,0x3a,0x06,0x45,0x54,0x3a,0x0b,0x40,0x70,0x69,0x74,0x63,0x68,0x69,0x69,0x3a,0x0c,0x40,0x76,0x6f,0x6c,0x75,0x6d,0x65,0x69,0x55))
  205(0,bytes(0x04,0x08,0x6f,0x3a,0x13,0x52,0x50,0x47,0x3a,0x3a,0x4d,0x6f,0x76,0x65,0x52,0x6f,0x75,0x74,0x65,0x09,0x3a,0x0c,0x40,0x72,0x65,0x70,0x65,0x61,0x74,0x46,0x3a,0x0f,0x40,0x73,0x6b,0x69,0x70,0x70,0x61,0x62,0x6c,0x65,0x46,0x3a,0x0a,0x40,0x77,0x61,0x69,0x74,0x54,0x3a,0x0a,0x40,0x6c,0x69,0x73,0x74,0x5b,0x0b,0x6f,0x3a,0x15,0x52,0x50,0x47,0x3a,0x3a,0x4d,0x6f,0x76,0x65,0x43,0x6f,0x6d,0x6d,0x61,0x6e,0x64,0x07,0x3a,0x0a,0x40,0x63,0x6f,0x64,0x65,0x69,0x29,0x3a,0x10,0x40,0x70,0x61,0x72,0x61,0x6d,0x65,0x74,0x65,0x72,0x73,0x5b,0x00,0x6f,0x3b,0x0a,0x07,0x3b,0x0b,0x69,0x16,0x3b,0x0c,0x5b,0x00,0x6f,0x3b,0x0a,0x07,0x3b,0x0b,0x69,0x14,0x3b,0x0c,0x5b,0x06,0x69,0x08,0x6f,0x3b,0x0a,0x07,0x3b,0x0b,0x69,0x17,0x3b,0x0c,0x5b,0x00,0x6f,0x3b,0x0a,0x07,0x3b,0x0b,0x69,0x14,0x3b,0x0c,0x5b,0x06,0x69,0x08,0x6f,0x3b,0x0a,0x07,0x3b,0x0b,0x69,0x00,0x3b,0x0c,0x5b,0x00))
  ChangeSelfSwitch("A",0)
  ChangeInventoryWeapon(253,0,0,1)
  0()
 PAGE   2
  // condition: self-switch A is ON
  0()



EVENT   7
 PAGE   1
  250(bytes(0x04,0x08,0x6f,0x3a,0x0c,0x52,0x50,0x47,0x3a,0x3a,0x53,0x45,0x08,0x3a,0x0a,0x40,0x6e,0x61,0x6d,0x65,0x49,0x22,0x0a,0x43,0x68,0x65,0x73,0x74,0x06,0x3a,0x06,0x45,0x54,0x3a,0x0b,0x40,0x70,0x69,0x74,0x63,0x68,0x69,0x69,0x3a,0x0c,0x40,0x76,0x6f,0x6c,0x75,0x6d,0x65,0x69,0x55))
  205(0,bytes(0x04,0x08,0x6f,0x3a,0x13,0x52,0x50,0x47,0x3a,0x3a,0x4d,0x6f,0x76,0x65,0x52,0x6f,0x75,0x74,0x65,0x09,0x3a,0x0c,0x40,0x72,0x65,0x70,0x65,0x61,0x74,0x46,0x3a,0x0f,0x40,0x73,0x6b,0x69,0x70,0x70,0x61,0x62,0x6c,0x65,0x46,0x3a,0x0a,0x40,0x77,0x61,0x69,0x74,0x54,0x3a,0x0a,0x40,0x6c,0x69,0x73,0x74,0x5b,0x0b,0x6f,0x3a,0x15,0x52,0x50,0x47,0x3a,0x3a,0x4d,0x6f,0x76,0x65,0x43,0x6f,0x6d,0x6d,0x61,0x6e,0x64,0x07,0x3a,0x0a,0x40,0x63,0x6f,0x64,0x65,0x69,0x29,0x3a,0x10,0x40,0x70,0x61,0x72,0x61,0x6d,0x65,0x74,0x65,0x72,0x73,0x5b,0x00,0x6f,0x3b,0x0a,0x07,0x3b,0x0b,0x69,0x16,0x3b,0x0c,0x5b,0x00,0x6f,0x3b,0x0a,0x07,0x3b,0x0b,0x69,0x14,0x3b,0x0c,0x5b,0x06,0x69,0x08,0x6f,0x3b,0x0a,0x07,0x3b,0x0b,0x69,0x17,0x3b,0x0c,0x5b,0x00,0x6f,0x3b,0x0a,0x07,0x3b,0x0b,0x69,0x14,0x3b,0x0c,0x5b,0x06,0x69,0x08,0x6f,0x3b,0x0a,0x07,0x3b,0x0b,0x69,0x00,0x3b,0x0c,0x5b,0x00))
  ChangeSelfSwitch("A",0)
  ChangeInventory_Item(12,0,0,1)
  0()
 PAGE   2
  // condition: self-switch A is ON
  0()



EVENT   8
 PAGE   1
  250(bytes(0x04,0x08,0x6f,0x3a,0x0c,0x52,0x50,0x47,0x3a,0x3a,0x53,0x45,0x08,0x3a,0x0a,0x40,0x6e,0x61,0x6d,0x65,0x49,0x22,0x0a,0x43,0x68,0x65,0x73,0x74,0x06,0x3a,0x06,0x45,0x54,0x3a,0x0b,0x40,0x70,0x69,0x74,0x63,0x68,0x69,0x69,0x3a,0x0c,0x40,0x76,0x6f,0x6c,0x75,0x6d,0x65,0x69,0x55))
  205(0,bytes(0x04,0x08,0x6f,0x3a,0x13,0x52,0x50,0x47,0x3a,0x3a,0x4d,0x6f,0x76,0x65,0x52,0x6f,0x75,0x74,0x65,0x09,0x3a,0x0c,0x40,0x72,0x65,0x70,0x65,0x61,0x74,0x46,0x3a,0x0f,0x40,0x73,0x6b,0x69,0x70,0x70,0x61,0x62,0x6c,0x65,0x46,0x3a,0x0a,0x40,0x77,0x61,0x69,0x74,0x54,0x3a,0x0a,0x40,0x6c,0x69,0x73,0x74,0x5b,0x0b,0x6f,0x3a,0x15,0x52,0x50,0x47,0x3a,0x3a,0x4d,0x6f,0x76,0x65,0x43,0x6f,0x6d,0x6d,0x61,0x6e,0x64,0x07,0x3a,0x0a,0x40,0x63,0x6f,0x64,0x65,0x69,0x29,0x3a,0x10,0x40,0x70,0x61,0x72,0x61,0x6d,0x65,0x74,0x65,0x72,0x73,0x5b,0x00,0x6f,0x3b,0x0a,0x07,0x3b,0x0b,0x69,0x16,0x3b,0x0c,0x5b,0x00,0x6f,0x3b,0x0a,0x07,0x3b,0x0b,0x69,0x14,0x3b,0x0c,0x5b,0x06,0x69,0x08,0x6f,0x3b,0x0a,0x07,0x3b,0x0b,0x69,0x17,0x3b,0x0c,0x5b,0x00,0x6f,0x3b,0x0a,0x07,0x3b,0x0b,0x69,0x14,0x3b,0x0c,0x5b,0x06,0x69,0x08,0x6f,0x3b,0x0a,0x07,0x3b,0x0b,0x69,0x00,0x3b,0x0c,0x5b,0x00))
  ChangeSelfSwitch("A",0)
  ChangeInventory_Item(12,0,0,1)
  0()
 PAGE   2
  // condition: self-switch A is ON
  0()



EVENT   9
 PAGE   1
  250(bytes(0x04,0x08,0x6f,0x3a,0x0c,0x52,0x50,0x47,0x3a,0x3a,0x53,0x45,0x08,0x3a,0x0a,0x40,0x6e,0x61,0x6d,0x65,0x49,0x22,0x0a,0x43,0x68,0x65,0x73,0x74,0x06,0x3a,0x06,0x45,0x54,0x3a,0x0b,0x40,0x70,0x69,0x74,0x63,0x68,0x69,0x69,0x3a,0x0c,0x40,0x76,0x6f,0x6c,0x75,0x6d,0x65,0x69,0x55))
  205(0,bytes(0x04,0x08,0x6f,0x3a,0x13,0x52,0x50,0x47,0x3a,0x3a,0x4d,0x6f,0x76,0x65,0x52,0x6f,0x75,0x74,0x65,0x09,0x3a,0x0c,0x40,0x72,0x65,0x70,0x65,0x61,0x74,0x46,0x3a,0x0f,0x40,0x73,0x6b,0x69,0x70,0x70,0x61,0x62,0x6c,0x65,0x46,0x3a,0x0a,0x40,0x77,0x61,0x69,0x74,0x54,0x3a,0x0a,0x40,0x6c,0x69,0x73,0x74,0x5b,0x0b,0x6f,0x3a,0x15,0x52,0x50,0x47,0x3a,0x3a,0x4d,0x6f,0x76,0x65,0x43,0x6f,0x6d,0x6d,0x61,0x6e,0x64,0x07,0x3a,0x0a,0x40,0x63,0x6f,0x64,0x65,0x69,0x29,0x3a,0x10,0x40,0x70,0x61,0x72,0x61,0x6d,0x65,0x74,0x65,0x72,0x73,0x5b,0x00,0x6f,0x3b,0x0a,0x07,0x3b,0x0b,0x69,0x16,0x3b,0x0c,0x5b,0x00,0x6f,0x3b,0x0a,0x07,0x3b,0x0b,0x69,0x14,0x3b,0x0c,0x5b,0x06,0x69,0x08,0x6f,0x3b,0x0a,0x07,0x3b,0x0b,0x69,0x17,0x3b,0x0c,0x5b,0x00,0x6f,0x3b,0x0a,0x07,0x3b,0x0b,0x69,0x14,0x3b,0x0c,0x5b,0x06,0x69,0x08,0x6f,0x3b,0x0a,0x07,0x3b,0x0b,0x69,0x00,0x3b,0x0c,0x5b,0x00))
  ChangeSelfSwitch("A",0)
  ChangeInventory_Item(232,0,0,1)
  0()
 PAGE   2
  // condition: self-switch A is ON
  0()



EVENT   10
 PAGE   1
  If(1,1074,0,1,0)
   241(bytes(0x04,0x08,0x6f,0x3a,0x0d,0x52,0x50,0x47,0x3a,0x3a,0x42,0x47,0x4d,0x08,0x3a,0x0a,0x40,0x6e,0x61,0x6d,0x65,0x49,0x22,0x0a,0x62,0x6f,0x73,0x73,0x30,0x06,0x3a,0x06,0x45,0x54,0x3a,0x0c,0x40,0x76,0x6f,0x6c,0x75,0x6d,0x65,0x69,0x69,0x3a,0x0b,0x40,0x70,0x69,0x74,0x63,0x68,0x69,0x69))
   PictureDisplay(5,"80_queenalraune_st21",0,0,0,0,100,100,0,0)
   PictureMove(5,null,0,0,0,0,100,100,255,0,60,true)
   ShowMessageFace("queenalraune_fc1",3,0,2,1)
   ShowMessage("\\n<Queen Alraune>To think a mere human would come to a place like this... What do you want of the great queen of plants?")
   If(0,6,0)
    ShowMessageFace("sonia_fc3",7,0,2,2)
    ShowMessage("\\n<Sonya>That's a big flower...\nSo this monster is the plant queen...")
    0()
   EndIf()
   If(4,218,0)
    ShowMessageFace("nyumaou_fc1",0,0,2,3)
    ShowMessage("\\n<Cow Demon Queen>Hmph! I am bigger than her!")
    0()
   EndIf()
   ShowMessageFace("ruka_fc1",0,0,2,4)
   ShowMessage("\\n<Luka>We came to release you from brainwashi...")
   If(0,4,0)
    ShowMessageFace("alice_fc5",2,0,2,5)
    ShowMessage("\\n<Alice>There's no point in telling her that, she's been completely overtaken by evil intentions. She won't listen to anything we say...")
    ShowMessageFace("alice_fc5",2,0,2,6)
    ShowMessage("\\n<Alice>Regardless of whether we came here to drag out the caster behind this or dispel the curse... The first thing we have to do is beat her up.")
    0()
   EndIf()
   If(0,5,0)
    ShowMessageFace("iriasu_fc4",7,0,2,7)
    ShowMessage("\\n<Ilias>Your words are wasted...this person is a mass of evil intentions. I doubt she will listen to us.")
    ShowMessageFace("iriasu_fc4",7,0,2,8)
    ShowMessage("\\n<Ilias>Whether we lure out the caster or simply release the curse... We'll need to start by beating her into submission.")
    0()
   EndIf()
   ShowMessageFace("queenalraune_fc1",4,0,2,9)
   ShowMessage("\\n<Queen Alraune>I see, so you came here to become my fertilizer... Very well, I will suck out your bodily fluids to the last drop!")
   If(4,322,0)
    ShowMessageFace("queenalraune_fc1",3,0,2,10)
    ShowMessage("\\n<Alrauna>I am your conscience...\nI cannot watch as you stain yourself with evil, so I'm speaking to you from within your heart.")
    ShowMessageFace("queenalraune_fc1",5,0,2,11)
    ShowMessage("\\n<Queen Alraune>...I have no such thing as conscience.\nWhat in the world are you...?")
    ShowMessageFace("queenalraune_fc1",3,0,2,12)
    ShowMessage("\\n<Alrauna>I was merely joking...\nYou could say I am you from a separate point in time and space.")
    ShowMessageFace("queenalraune_fc1",5,0,2,13)
    ShowMessage("\\n<Queen Alraune>What incomprehensible nonsense is this...\nYou irk me, I shall make you disappear here and now...!")
    0()
   EndIf()
   ShowMessageFace("ruka_fc1",0,0,2,14)
   ShowMessage("\\n<Luka>I'm reluctant about this, but we have to fight.\nWe need to bring the queen back to her senses... Let's go, everyone!")
   If(12,"exist_party_persona_id?(241)")
    ShowMessageFace("a_emp_fc1",1,0,2,15)
    ShowMessage("\\n<Priestess>Fufufu.")
    0()
   EndIf()
   PictureClear(5)
   SetBattleBGM(bytes(0x04,0x08,0x6f,0x3a,0x0d,0x52,0x50,0x47,0x3a,0x3a,0x42,0x47,0x4d,0x08,0x3a,0x0a,0x40,0x6e,0x61,0x6d,0x65,0x49,0x22,0x0a,0x62,0x6f,0x73,0x73,0x32,0x06,0x3a,0x06,0x45,0x54,0x3a,0x0c,0x40,0x76,0x6f,0x6c,0x75,0x6d,0x65,0x69,0x69,0x3a,0x0b,0x40,0x70,0x69,0x74,0x63,0x68,0x69,0x69))
   ChangeSwitch(22,22,0)
   Battle(0,793,false,false)
   ChangeSwitch(22,22,1)
   SetBattleBGM(bytes(0x04,0x08,0x6f,0x3a,0x0d,0x52,0x50,0x47,0x3a,0x3a,0x42,0x47,0x4d,0x08,0x3a,0x0a,0x40,0x6e,0x61,0x6d,0x65,0x49,0x22,0x0b,0x62,0x61,0x74,0x74,0x6c,0x65,0x06,0x3a,0x06,0x45,0x54,0x3a,0x0c,0x40,0x76,0x6f,0x6c,0x75,0x6d,0x65,0x69,0x69,0x3a,0x0b,0x40,0x70,0x69,0x74,0x63,0x68,0x69,0x69))
   241(bytes(0x04,0x08,0x6f,0x3a,0x0d,0x52,0x50,0x47,0x3a,0x3a,0x42,0x47,0x4d,0x08,0x3a,0x0a,0x40,0x6e,0x61,0x6d,0x65,0x49,0x22,0x0a,0x6b,0x69,0x6b,0x69,0x32,0x06,0x3a,0x06,0x45,0x54,0x3a,0x0c,0x40,0x76,0x6f,0x6c,0x75,0x6d,0x65,0x69,0x69,0x3a,0x0b,0x40,0x70,0x69,0x74,0x63,0x68,0x69,0x69))
   PictureDisplay(5,"80_queenalraune_st23",0,0,0,0,100,100,0,0)
   PictureMove(5,null,0,0,0,0,100,100,255,0,30,true)
   ShowMessageFace("queenalraune_fc1",5,0,2,16)
   ShowMessage("\\n<Queen Alraune>To think I...\nThe great queen of plants...would suffer defeat to a human...")
   If(12,"exist_party_persona_id?(241)")
    ShowMessageFace("a_emp_fc1",1,0,2,17)
    ShowMessage("\\n<Priestess>Fufufu.")
    0()
   EndIf()
   If(0,4,0)
    ShowMessageFace("alice_fc5",2,0,2,18)
    ShowMessage("\\n<Alice>Queen Alraune, you have been brainwashed.\nEven if you yourself didn't notice, your hatred and evil intentions were being amplified.")
    ShowMessageFace("alice_fc5",2,0,2,19)
    ShowMessage("\\n<Alice>We will return you back to your original, gentle self. Mephisto, can you do it...?")
    0()
   EndIf()
   If(0,5,0)
    ShowMessageFace("iriasu_fc4",7,0,2,20)
    ShowMessage("\\n<Ilias>Queen Alraune, you have been brainwashed.\nDidn't you notice that your hatred and evil intentions were being amplified...?")
    ShowMessageFace("iriasu_fc4",7,0,2,21)
    ShowMessage("\\n<Ilias>We shall now release the brainwashing...\nDo it, Mephisto.")
    0()
   EndIf()
   If(12,"exist_party_persona_id?(391)")
    ShowMessageFace("mefist_fc2",0,0,2,22)
    ShowMessage("\\n<Mephisto>Leave it to me...\nThis kind of brainwashing spell is easier to remove than to cast on someone.")
    0()
   Else()
    ShowMessageFace("mefist_fc1",0,0,2,23)
    ShowMessage("\\n<Mephisto>Leave it to me...\nThis kind of brainwashing spell is easier to remove than to cast on someone.")
    0()
   EndIf()
   PictureClear(5)
   Wait(60)
   ShowMessageFace("",0,0,2,24)
   ShowMessage("\\n<？？？>Do you think I will allow that...?")
   205(-1,bytes(0x04,0x08,0x6f,0x3a,0x13,0x52,0x50,0x47,0x3a,0x3a,0x4d,0x6f,0x76,0x65,0x52,0x6f,0x75,0x74,0x65,0x09,0x3a,0x0c,0x40,0x72,0x65,0x70,0x65,0x61,0x74,0x46,0x3a,0x0f,0x40,0x73,0x6b,0x69,0x70,0x70,0x61,0x62,0x6c,0x65,0x46,0x3a,0x0a,0x40,0x77,0x61,0x69,0x74,0x54,0x3a,0x0a,0x40,0x6c,0x69,0x73,0x74,0x5b,0x07,0x6f,0x3a,0x15,0x52,0x50,0x47,0x3a,0x3a,0x4d,0x6f,0x76,0x65,0x43,0x6f,0x6d,0x6d,0x61,0x6e,0x64,0x07,0x3a,0x0a,0x40,0x63,0x6f,0x64,0x65,0x69,0x18,0x3a,0x10,0x40,0x70,0x61,0x72,0x61,0x6d,0x65,0x74,0x65,0x72,0x73,0x5b,0x00,0x6f,0x3b,0x0a,0x07,0x3b,0x0b,0x69,0x00,0x3b,0x0c,0x5b,0x00))
   205(0,bytes(0x04,0x08,0x6f,0x3a,0x13,0x52,0x50,0x47,0x3a,0x3a,0x4d,0x6f,0x76,0x65,0x52,0x6f,0x75,0x74,0x65,0x09,0x3a,0x0c,0x40,0x72,0x65,0x70,0x65,0x61,0x74,0x46,0x3a,0x0f,0x40,0x73,0x6b,0x69,0x70,0x70,0x61,0x62,0x6c,0x65,0x46,0x3a,0x0a,0x40,0x77,0x61,0x69,0x74,0x54,0x3a,0x0a,0x40,0x6c,0x69,0x73,0x74,0x5b,0x07,0x6f,0x3a,0x15,0x52,0x50,0x47,0x3a,0x3a,0x4d,0x6f,0x76,0x65,0x43,0x6f,0x6d,0x6d,0x61,0x6e,0x64,0x07,0x3a,0x0a,0x40,0x63,0x6f,0x64,0x65,0x69,0x18,0x3a,0x10,0x40,0x70,0x61,0x72,0x61,0x6d,0x65,0x74,0x65,0x72,0x73,0x5b,0x00,0x6f,0x3b,0x0a,0x07,0x3b,0x0b,0x69,0x00,0x3b,0x0c,0x5b,0x00))
   212(11,516,false)
   Wait(120)
   ChangeSwitch(31,31,0)
   Wait(60)
   241(bytes(0x04,0x08,0x6f,0x3a,0x0d,0x52,0x50,0x47,0x3a,0x3a,0x42,0x47,0x4d,0x08,0x3a,0x0a,0x40,0x6e,0x61,0x6d,0x65,0x49,0x22,0x0a,0x62,0x6f,0x73,0x73,0x30,0x06,0x3a,0x06,0x45,0x54,0x3a,0x0c,0x40,0x76,0x6f,0x6c,0x75,0x6d,0x65,0x69,0x69,0x3a,0x0b,0x40,0x70,0x69,0x74,0x63,0x68,0x69,0x69))
   PictureDisplay(5,"80_azidahaka_st01",0,0,0,0,100,100,255,0)
   PictureMove(5,null,0,0,0,0,100,100,255,0,60,true)
   ShowMessageFace("azidahaka_fc1",0,0,2,25)
   ShowMessage("\\n<Aži Dahāka>I am Aži Dahāka.\nThe tyrannical dragon of a thousand curses...")
   If(0,4,0)
    ShowMessageFace("alice_fc5",2,0,2,26)
    ShowMessage("\\n<Alice>And you're Black Alice's subordinate, aren't you... Hmph, we've successfully lured out the caster!")
    0()
   EndIf()
   If(0,5,0)
    ShowMessageFace("iriasu_fc4",7,0,2,27)
    ShowMessage("\\n<Ilias>And Black Alice's subordinate, you forgot to mention... Looks like we've successfully lured out the caster.")
    0()
   EndIf()
   ShowMessageFace("azidahaka_fc1",0,0,2,28)
   ShowMessage("\\n<Aži Dahāka>...Indeed. It was I who cast the curse which sowed turmoil in the plant queen's heart. In accordance with Black Alice's will, it is my duty to liven this chaotic banquet even more.")
   If(4,45,0)
    ShowMessageFace("alicetromeria_fc1",1,0,2,29)
    ShowMessage("\\n<Alicetroemeria>...♪")
    0()
   EndIf()
   PictureDisplay(5,"80_azidahaka_st01",0,0,-150,0,100,100,255,0)
   PictureDisplay(6,"80_queenalraune_st21",0,0,150,0,100,100,255,0)
   ShowMessageFace("queenalraune_fc1",5,0,2,30)
   ShowMessage("\\n<Queen Alraune>It can't be...\nSo like these people said, my mind was really...")
   ShowMessageFace("azidahaka_fc1",0,0,2,31)
   ShowMessage("\\n<Aži Dahāka>It wouldn't be very interesting if you restored the plant queen back to normal after all the effort I went through making her my pawn.\n\nAnyone who gets in the way of our banquet has been requested to leave immediately...!")
   ShowMessageFace("ruka_fc1",0,0,2,32)
   ShowMessage("\\n<Luka>We won't let you continue using brainwashing to cause war between the races! We'll kick you out of the World Tree!")
   ShowMessageFace("queenalraune_fc1",5,0,2,33)
   ShowMessage("\\n<Queen Alraune>Damn you, to think I let myself be used like that. Although I don't have any strength left after the previous battle...")
   250(bytes(0x04,0x08,0x6f,0x3a,0x0c,0x52,0x50,0x47,0x3a,0x3a,0x53,0x45,0x08,0x3a,0x0a,0x40,0x6e,0x61,0x6d,0x65,0x49,0x22,0x0a,0x48,0x65,0x61,0x6c,0x37,0x06,0x3a,0x06,0x45,0x54,0x3a,0x0b,0x40,0x70,0x69,0x74,0x63,0x68,0x69,0x69,0x3a,0x0c,0x40,0x76,0x6f,0x6c,0x75,0x6d,0x65,0x69,0x55))
   224(bytes(0x04,0x08,0x75,0x3a,0x0a,0x43,0x6f,0x6c,0x6f,0x72,0x25,0x00,0x00,0x00,0x00,0x00,0xe0,0x6f,0x40,0x00,0x00,0x00,0x00,0x00,0xe0,0x6f,0x40,0x00,0x00,0x00,0x00,0x00,0xe0,0x6f,0x40,0x00,0x00,0x00,0x00,0x00,0xe0,0x6f,0x40),30,true)
   314(0,0)
   ShowMessageFace("",0,0,2,34)
   ShowMessage("The party's HP and MP have been fully restored!")
   ShowMessageFace("queenalraune_fc1",5,0,2,35)
   ShowMessage("\\n<Queen Alraune>I've healed your wounds.\nStrike down the one who has infringed upon my heart...!")
   PictureClear(6)
   PictureDisplay(5,"80_azidahaka_st02",0,0,0,0,100,100,255,0)
   ShowMessageFace("azidahaka_fc1",1,0,2,36)
   ShowMessage("\\n<Aži Dahāka>As if a human or monster from this era could match me... I'll slaughter you all at once!")
   ShowMessageFace("ruka_fc1",0,0,2,37)
   ShowMessage("\\n<Luka>We won't lose...! Let's go!")
   If(4,15,0)
    ShowMessageFace("salamander_fc1",2,0,2,38)
    ShowMessage("\\n<Salamander>How laughable, acting like a big-shot after using something as underhanded as brainwashing! I'll beat some sense into that rotten personality of yours!")
    0()
   EndIf()
   SetBattleBGM(bytes(0x04,0x08,0x6f,0x3a,0x0d,0x52,0x50,0x47,0x3a,0x3a,0x42,0x47,0x4d,0x08,0x3a,0x0a,0x40,0x6e,0x61,0x6d,0x65,0x49,0x22,0x0a,0x62,0x6f,0x73,0x73,0x32,0x06,0x3a,0x06,0x45,0x54,0x3a,0x0c,0x40,0x76,0x6f,0x6c,0x75,0x6d,0x65,0x69,0x69,0x3a,0x0b,0x40,0x70,0x69,0x74,0x63,0x68,0x69,0x69))
   ChangeSwitch(22,22,0)
   Battle(0,794,false,false)
   ChangeSwitch(22,22,1)
   SetBattleBGM(bytes(0x04,0x08,0x6f,0x3a,0x0d,0x52,0x50,0x47,0x3a,0x3a,0x42,0x47,0x4d,0x08,0x3a,0x0a,0x40,0x6e,0x61,0x6d,0x65,0x49,0x22,0x0b,0x62,0x61,0x74,0x74,0x6c,0x65,0x06,0x3a,0x06,0x45,0x54,0x3a,0x0c,0x40,0x76,0x6f,0x6c,0x75,0x6d,0x65,0x69,0x69,0x3a,0x0b,0x40,0x70,0x69,0x74,0x63,0x68,0x69,0x69))
   314(0,0)
   TeleportPlayer(0,306,26,25,8,2)
   ChangeVariable(1074,1074,0,0,2)
   241(bytes(0x04,0x08,0x6f,0x3a,0x0d,0x52,0x50,0x47,0x3a,0x3a,0x42,0x47,0x4d,0x08,0x3a,0x0a,0x40,0x6e,0x61,0x6d,0x65,0x49,0x22,0x0a,0x6b,0x69,0x6b,0x69,0x32,0x06,0x3a,0x06,0x45,0x54,0x3a,0x0c,0x40,0x76,0x6f,0x6c,0x75,0x6d,0x65,0x69,0x69,0x3a,0x0b,0x40,0x70,0x69,0x74,0x63,0x68,0x69,0x69))
   PictureDisplay(5,"80_azidahaka_st03",0,0,0,0,100,100,255,0)
   ShowMessageFace("azidahaka_fc1",2,0,2,39)
   ShowMessage("\\n<Aži Dahāka>This was unexpected, I didn't think there was anyone this tough around.")
   If(0,4,0)
    ShowMessageFace("alice_fc5",2,0,2,40)
    ShowMessage("\\n<Alice>Tell me what is Black Alice scheming!\nWhat are her intentions behind causing turmoil in the world with her trickery?!")
    0()
   EndIf()
   If(0,5,0)
    ShowMessageFace("iriasu_fc4",7,0,2,41)
    ShowMessage("\\n<Ilias>What is Black Alice scheming?!\nIs she playing the trickster, bringing chaos in the world for her own amusement?!")
    0()
   EndIf()
   PictureDisplay(5,"80_azidahaka_st01",0,0,0,0,100,100,255,0)
   ShowMessageFace("azidahaka_fc1",0,0,2,42)
   ShowMessage("\\n<Aži Dahāka>This world is a stage to her.\nI do not know what role she herself is acting out...")
   ShowMessageFace("azidahaka_fc1",0,0,2,43)
   ShowMessage("\\n<Aži Dahāka>Now then, I shall take my leave.\nYour valiant efforts were remarkable... I'll be seeing you.")
   PictureClear(5)
   Wait(60)
   250(bytes(0x04,0x08,0x6f,0x3a,0x0c,0x52,0x50,0x47,0x3a,0x3a,0x53,0x45,0x08,0x3a,0x0a,0x40,0x6e,0x61,0x6d,0x65,0x49,0x22,0x0d,0x6d,0x6f,0x6e,0x5f,0x77,0x61,0x72,0x70,0x06,0x3a,0x06,0x45,0x54,0x3a,0x0b,0x40,0x70,0x69,0x74,0x63,0x68,0x69,0x69,0x3a,0x0c,0x40,0x76,0x6f,0x6c,0x75,0x6d,0x65,0x69,0x55))
   ChangeSwitch(31,31,1)
   ShowMessageFace("ruka_fc1",0,0,2,44)
   ShowMessage("\\n<Luka>WAIT... Ugh, she escaped.")
   241(bytes(0x04,0x08,0x6f,0x3a,0x0d,0x52,0x50,0x47,0x3a,0x3a,0x42,0x47,0x4d,0x08,0x3a,0x0a,0x40,0x6e,0x61,0x6d,0x65,0x49,0x22,0x14,0x73,0x63,0x65,0x6e,0x65,0x5f,0x65,0x70,0x69,0x6c,0x6f,0x67,0x75,0x65,0x32,0x06,0x3a,0x06,0x45,0x54,0x3a,0x0c,0x40,0x76,0x6f,0x6c,0x75,0x6d,0x65,0x69,0x69,0x3a,0x0b,0x40,0x70,0x69,0x74,0x63,0x68,0x69,0x69))
   205(0,bytes(0x04,0x08,0x6f,0x3a,0x13,0x52,0x50,0x47,0x3a,0x3a,0x4d,0x6f,0x76,0x65,0x52,0x6f,0x75,0x74,0x65,0x09,0x3a,0x0c,0x40,0x72,0x65,0x70,0x65,0x61,0x74,0x46,0x3a,0x0f,0x40,0x73,0x6b,0x69,0x70,0x70,0x61,0x62,0x6c,0x65,0x46,0x3a,0x0a,0x40,0x77,0x61,0x69,0x74,0x54,0x3a,0x0a,0x40,0x6c,0x69,0x73,0x74,0x5b,0x07,0x6f,0x3a,0x15,0x52,0x50,0x47,0x3a,0x3a,0x4d,0x6f,0x76,0x65,0x43,0x6f,0x6d,0x6d,0x61,0x6e,0x64,0x07,0x3a,0x0a,0x40,0x63,0x6f,0x64,0x65,0x69,0x15,0x3a,0x10,0x40,0x70,0x61,0x72,0x61,0x6d,0x65,0x74,0x65,0x72,0x73,0x5b,0x00,0x6f,0x3b,0x0a,0x07,0x3b,0x0b,0x69,0x00,0x3b,0x0c,0x5b,0x00))
   If(0,4,0)
    ShowMessageFace("alice_fc5",0,0,2,45)
    ShowMessage("\\n<Alice>Still, it looks like the mind-influencing curse is gone. Have you cooled your head, Queen Alraune?")
    0()
   EndIf()
   If(0,5,0)
    ShowMessageFace("iriasu_fc4",0,0,2,46)
    ShowMessage("\\n<Ilias>Nevertheless, it appears the mind-influencing curse has disappeared. Queen Alraune, have you cooled your head?")
    0()
   EndIf()
   PictureDisplay(5,"80_queenalraune_st23",0,0,0,0,100,100,0,0)
   PictureMove(5,null,0,0,0,0,100,100,255,0,30,true)
   355("gain_medal(54)")
   ShowMessageFace("queenalraune_fc1",5,0,2,47)
   ShowMessage("\\n<Queen Alraune>Yes...I have finally regained my reason.\nI have done such a foolish thing...")
   If(0,4,0)
    ShowMessageFace("alice_fc5",2,0,2,48)
    ShowMessage("\\n<Alice>Good grief...looks like brainwashing is really popular these days. Each one of you goes on a rampage after having your mind slightly disturbed.")
    0()
   EndIf()
   If(0,5,0)
    ShowMessageFace("iriasu_fc4",2,0,2,49)
    ShowMessage("\\n<Ilias>Good grief...it appears brainwashing is really popular these days. Losing your sanity and going on a rampage, I envy your carelessness.")
    0()
   EndIf()
   ShowMessageFace("queenalraune_fc1",5,0,2,50)
   ShowMessage("\\n<Queen Alraune>I am truly embarrassed...\nI had been reduced to someone else's tool to cause disorder in the world.")
   PictureDisplay(5,"80_queenalraune_st21",0,0,0,0,100,100,255,0)
   ShowMessageFace("queenalraune_fc1",3,0,2,51)
   ShowMessage("\\n<Queen Alraune>I have heard rumors of you.\nThey say you are opposing the Monster Lord's tyranny and fighting for peace...")
   If(4,203,0)
    ShowMessageFace("tatunoko_k_fc1",0,0,2,52)
    ShowMessage("\\n<Tatsuko>That's right!")
    0()
   EndIf()
   If(4,202,0)
    ShowMessageFace("bonny_fc1",1,0,2,53)
    ShowMessage("\\n<Bonnie>Oh! So the Fishy Pirates' reputation has even reached the queen of flowers!")
    0()
   EndIf()
   If(0,4,0)
    ShowMessageFace("alice_fc5",0,0,2,54)
    ShowMessage("\\n<Alice>If there are such rumors, that means it was worth traveling all across the world. Could you lend us your help too?")
    0()
   EndIf()
   If(0,5,0)
    ShowMessageFace("iriasu_fc4",1,0,2,55)
    ShowMessage("\\n<Ilias>Indeed...it is we, the party of this world's Goddess and the Hero. If you serve me, I guarantee you will live a happy future.")
    0()
   EndIf()
   ShowMessageFace("queenalraune_fc1",3,0,2,56)
   ShowMessage("\\n<Queen Alraune>I apologize for having caused so much trouble with this incident. I also give you my utmost gratitude in endeavoring for my sake.")
   If(12,"exist_party_persona_id?(241)")
    ShowMessageFace("a_emp_fc1",2,0,2,57)
    ShowMessage("\\n<Priestess>Yeah, you were a huge pain...")
    ShowMessageFace("a_emp_fc1",1,0,2,58)
    ShowMessage("\\n<Priestess>Oh, excuse me, I misspoke.\nDid you hear that? Did you hear what I just said?")
    ShowMessageFace("queenalraune_fc1",4,0,2,59)
    ShowMessage("\\n<Queen Alraune>No, I did not hear you.\nWords spoken by insolent fellows do not reach my ears...")
    ShowMessageFace("a_emp_fc1",1,0,2,60)
    ShowMessage("\\n<Priestess>That's a convenient pair of ears.\nI assume a queen needs ears that distance her from any criticism?")
    ShowMessageFace("queenalraune_fc1",4,0,2,61)
    ShowMessage("\\n<Queen Alraune>Now, what is she saying...?\nUnfortunately I can't hear that rude girl's voice.")
    If(0,4,0)
     ShowMessageFace("alice_fc5",0,0,2,62)
     ShowMessage("\\n<Alice>You two sure don't get along...")
     0()
    EndIf()
    If(0,5,0)
     ShowMessageFace("iriasu_fc4",2,0,2,63)
     ShowMessage("\\n<Ilias>Good heavens, you do not get along do you...")
     0()
    EndIf()
    0()
   EndIf()
   ShowMessageFace("queenalraune_fc1",3,0,2,64)
   ShowMessage("\\n<Queen Alraune>I cannot help you much since I've been wounded... So let me give you this..")
   250(bytes(0x04,0x08,0x6f,0x3a,0x0c,0x52,0x50,0x47,0x3a,0x3a,0x53,0x45,0x08,0x3a,0x0a,0x40,0x6e,0x61,0x6d,0x65,0x49,0x22,0x0a,0x49,0x74,0x65,0x6d,0x31,0x06,0x3a,0x06,0x45,0x54,0x3a,0x0b,0x40,0x70,0x69,0x74,0x63,0x68,0x69,0x69,0x3a,0x0c,0x40,0x76,0x6f,0x6c,0x75,0x6d,0x65,0x69,0x55))
   ChangeInventory_Item(632,0,0,1)
   ChangeSwitch(2311,2311,0)
   If(0,4,0)
    ShowMessageFace("alice_fc5",0,0,2,65)
    ShowMessage("\\n<Alice>With this, we will be able to take up the advanced dancer and minstrel jobs. But why did you have this...?")
    0()
   EndIf()
   If(0,5,0)
    ShowMessageFace("iriasu_fc4",2,0,2,66)
    ShowMessage("\\n<Ilias>Having this will allow us to take up the advanced dancer and minstrel jobs. But why did a plant monster like you have such a thing...?")
    0()
   EndIf()
   ShowMessageFace("queenalraune_fc1",3,0,2,67)
   ShowMessage("\\n<Queen Alraune>When I was younger, I aimed to become a superstar.")
   If(0,6,0)
    ShowMessageFace("sonia_fc3",2,0,2,68)
    ShowMessage("\\n<Sonya>A superstar?!")
    0()
   Else()
    ShowMessageFace("ruka_fc1",0,0,2,69)
    ShowMessage("\\n<Luka>A superstar?!")
    0()
   EndIf()
   If(4,294,0)
    ShowMessageFace("emily_fc1",1,0,2,70)
    ShowMessage("\\n<Emily>Just like me.\nDon't give up, keep going for it!")
    0()
   EndIf()
   ShowMessageFace("queenalraune_fc1",3,0,2,71)
   ShowMessage("\\n<Queen Alraune>Do not hesitate to come to me if you have any troubles. I will definitely help you if there is something I can do.")
   PictureClear(5)
   If(8,157)
    If(0,4,0)
     ShowMessageFace("alice_fc5",1,0,2,72)
     ShowMessage("\\n<Alice>Very well, I guess this incident has been resolved.\nLet's head out towards our next destination.")
     0()
    EndIf()
    If(0,5,0)
     ShowMessageFace("iriasu_fc4",0,0,2,73)
     ShowMessage("\\n<Ilias>It looks like this incident has been resolved.\nLet's head to our next destination then.")
     0()
    EndIf()
    0()
   Else()
    If(0,4,0)
     ShowMessageFace("alice_fc5",1,0,2,74)
     ShowMessage("\\n<Alice>This incident has been resolved...but let's not forget we need to find the rainbow crystal. If we have that material, the elven blacksmith can manufacture rainbow equipment for us.")
     0()
    EndIf()
    If(0,5,0)
     ShowMessageFace("iriasu_fc4",0,0,2,75)
     ShowMessage("\\n<Ilias> Although this incident was resolved...we should not forget about finding the rainbow crystal. With that material in our hands, the elven blacksmith can manufacture rainbow equipment for us.")
     0()
    EndIf()
    0()
   EndIf()
   If(1,1011,0,4,1)
    If(0,6,0)
     ShowMessageFace("sonia_fc1",0,0,2,76)
     ShowMessage("\\n<Sonya>By the way, aren't we forgetting about the Fruit of the World Tree? We need it to cure Queen Harpy of her illness.")
     ShowMessageFace("ruka_fc1",0,0,2,77)
     ShowMessage("\\n<Luka>You're right, we need to ask Queen Alraune about it...")
     0()
    Else()
     ShowMessageFace("ruka_fc1",0,0,2,78)
     ShowMessage("\\n<Luka>By the way, aren't we forgetting about the Fruit of the World Tree? We need it to cure Queen Harpy of her illness.")
     ShowMessageFace("ruka_fc1",0,0,2,79)
     ShowMessage("\\n<Luka>We'll have to ask Queen Alraune about it...")
     0()
    EndIf()
    0()
   EndIf()
   241(bytes(0x04,0x08,0x6f,0x3a,0x0d,0x52,0x50,0x47,0x3a,0x3a,0x42,0x47,0x4d,0x08,0x3a,0x0a,0x40,0x6e,0x61,0x6d,0x65,0x49,0x22,0x19,0x64,0x75,0x6e,0x67,0x65,0x6f,0x6e,0x5f,0x73,0x65,0x69,0x72,0x65,0x69,0x6e,0x6f,0x6d,0x6f,0x72,0x69,0x06,0x3a,0x06,0x45,0x54,0x3a,0x0c,0x40,0x76,0x6f,0x6c,0x75,0x6d,0x65,0x69,0x69,0x3a,0x0b,0x40,0x70,0x69,0x74,0x63,0x68,0x69,0x69))
   If(0,2329,0)
    ChangeVariable(1084,1084,0,0,3)
    0()
   EndIf()
   EndEventProcessing()
   0()
  EndIf()
  If(1,1074,0,2,1)
   If(1,1001,0,30,2)
    PictureDisplay(5,"80_queenalraune_st23",0,0,0,0,100,100,0,0)
    PictureMove(5,null,0,0,0,0,100,100,255,0,30,true)
    ShowMessageFace("queenalraune_fc1",5,0,2,80)
    ShowMessage("\\n<Queen Alraune>Ugh...my body isn't in the best condition...")
    ShowMessageFace("ruka_fc1",0,0,2,81)
    ShowMessage("\\n<Luka>I'm sorry, maybe we overdid it...")
    PictureDisplay(5,"80_queenalraune_st21",0,0,0,0,100,100,255,0)
    ShowMessageFace("queenalraune_fc1",3,0,2,82)
    ShowMessage("\\n<Queen Alraune>Oh no, it was a necessary measure.\nI am also a specialist when it come to medicine, so it won't be long before I'm healed.")
    If(1,1011,0,4,1)
     If(2,"A",1)
      ChangeSelfSwitch("A",0)
      ShowMessageFace("ruka_fc1",0,0,2,83)
      ShowMessage("\\n<Luka>Um, could we get a Fruit of the World Tree...?\nQueen Harpy is sick, and she needs it.")
      ShowMessageFace("queenalraune_fc1",3,0,2,84)
      ShowMessage("\\n<Queen Alraune>I see...this will take a little while, if you don't mind. It will take several days for one to grow.")
      ShowMessageFace("ruka_fc1",0,0,2,85)
      ShowMessage("\\n<Luka>Thank you very much.\nIn that case, we'll come again later.")
      0()
     EndIf()
     If(2,"A",0)
      ShowMessageFace("",0,0,2,86)
      ShowMessage("The Fruit of the World Tree is currently growing.\nLet's come back after some more time has passed.")
      0()
     EndIf()
     0()
    EndIf()
    PictureClear(5)
    EndEventProcessing()
    0()
   EndIf()
   If(1,1001,0,31,1)
    If(1,1011,0,4,0)
     If(0,2322,1)
      PictureDisplay(5,"80_queenalraune_st21",0,0,0,0,100,100,0,0)
      PictureMove(5,null,0,0,0,0,100,100,255,0,30,true)
      If(2,"A",1)
       ShowMessageFace("ruka_fc1",0,0,2,87)
       ShowMessage("\\n<Luka>Um, could we get a Fruit of the World Tree...?\nQueen Harpy is sick, and she needs it.")
       ShowMessageFace("queenalraune_fc1",3,0,2,88)
       ShowMessage("\\n<Queen Alraune>I see...I actually have one on hand that has just grown ripe. By all means, please take it.")
       0()
      EndIf()
      If(2,"A",0)
       ShowMessageFace("queenalraune_fc1",3,0,2,89)
       ShowMessage("\\n<Queen Alraune>The Fruit of the World Tree you requested is ready. By all means, please take it.")
       0()
      EndIf()
      250(bytes(0x04,0x08,0x6f,0x3a,0x0c,0x52,0x50,0x47,0x3a,0x3a,0x53,0x45,0x08,0x3a,0x0a,0x40,0x6e,0x61,0x6d,0x65,0x49,0x22,0x0a,0x49,0x74,0x65,0x6d,0x31,0x06,0x3a,0x06,0x45,0x54,0x3a,0x0b,0x40,0x70,0x69,0x74,0x63,0x68,0x69,0x69,0x3a,0x0c,0x40,0x76,0x6f,0x6c,0x75,0x6d,0x65,0x69,0x55))
      ChangeInventory_Item(508,0,0,1)
      ChangeSwitch(2322,2322,0)
      If(0,6,0)
       ShowMessageFace("sonia_fc3",6,0,2,90)
       ShowMessage("\\n<Sonya>Thank you very much!")
       0()
      Else()
       ShowMessageFace("ruka_fc1",0,0,2,91)
       ShowMessage("\\n<Luka>Thank you very much!")
       0()
      EndIf()
      ShowMessageFace("",0,0,2,92)
      ShowMessage("With this, we can cure Queen Harpy of her illness.\nLet's head back to the Harpy Tower north of Happiness Village.")
      PictureClear(5)
      EndEventProcessing()
      0()
     EndIf()
     0()
    EndIf()
    If(1,1083,0,3,0)
     RunCommonEvent(355)
     EndEventProcessing()
     0()
    EndIf()
    PictureDisplay(5,"80_queenalraune_st21",0,0,0,0,100,100,0,0)
    PictureMove(5,null,0,0,0,0,100,100,255,0,30,true)
    ShowMessageFace("queenalraune_fc1",3,0,2,93)
    ShowMessage("\\n<Queen Alraune>Now, do you need anything of me...?")
    ShowChoices(strings("Join the party","Nothing"),2)
    IfPlayerPicksChoice(0,null)
     ShowMessageFace("queenalraune_fc1",3,0,2,94)
     ShowMessage("\\n<Queen Alraune>Gladly...is what I would like to say, but there's something I would like to do first. Before I join you in your travels, I want to transfer the queen's position to the next generation.")
     If(0,1241,1)
      ShowMessageFace("queenalraune_fc1",3,0,2,95)
      ShowMessage("\\n<Queen Alraune>The one to become the next queen should be Alra Priestess... Please wait a moment while I summon her here telepathically.")
      ShowMessageFace("queenalraune_fc1",3,0,2,96)
      ShowMessage("\\n<Queen Alraune>............")
      ShowMessageFace("queenalraune_fc1",5,0,2,97)
      ShowMessage("\\n<Queen Alraune>I was turned down...\nShe said she doesn't want to become the queen...")
      ShowMessageFace("",0,0,2,98)
      ShowMessage("It appears that until the queen's position is succeeded, Queen Alraune won't be joining us...")
      PictureClear(5)
      EndEventProcessing()
      0()
     EndIf()
     If(0,1241,0)
      If(1,1084,0,0,0)
       ShowMessageFace("queenalraune_fc1",3,0,2,99)
       ShowMessage("\\n<Queen Alraune>The one to become the next queen should be Alra Priestess... You can hear me, can't you?")
       PictureDisplay(5,"80_a_emp_st01",0,0,-150,0,100,100,255,0)
       PictureDisplay(6,"80_queenalraune_st21",0,0,150,0,100,100,255,0)
       ShowMessageFace("a_emp_fc1",0,0,2,100)
       ShowMessage("\\n<Priestess>Not happening, I refuse.")
       ShowMessageFace("a_emp_fc1",1,0,2,101)
       ShowMessage("\\n<Priestess>...Absolutely not.")
       ShowMessageFace("queenalraune_fc1",5,0,2,102)
       ShowMessage("\\n<Queen Alraune>O-oh my...\nSo you say with a smile on her face...")
       ShowMessageFace("a_emp_fc1",0,0,2,103)
       ShowMessage("\\n<Priestess>I'm not fit to become the queen.\nEven ruling Plansect Village alone too much of a burden for me.")
       ShowMessageFace("queenalraune_fc1",3,0,2,104)
       ShowMessage("\\n<Queen Alraune>Ruling that village is an immensely heavy responsibility... If you have managed to do that, you possess the qualifications to become the next queen.")
       ShowMessageFace("a_emp_fc1",2,0,2,105)
       ShowMessage("\\n<Priestess>That would be too much stress for me. I absolutely won't.")
       ShowMessageFace("queenalraune_fc1",3,0,2,106)
       ShowMessage("\\n<Queen Alraune>...To succeed the queen's position, you need the [Seedling of Light]. This seedling, which has accumulated sunlight energy, shall bestow its power unto to the successor.")
       ShowMessageFace("a_emp_fc1",2,0,2,107)
       ShowMessage("\\n<Priestess>Are you ignoring me?")
       ShowMessageFace("queenalraune_fc1",3,0,2,108)
       ShowMessage("\\n<Queen Alraune>The place where this sunlight energy acumulates is...Gold Coast. You will find the [Seedling of Light] there.")
       ShowMessageFace("a_emp_fc1",2,0,2,109)
       ShowMessage("\\n<Priestess>We won't.")
       ShowMessageFace("queenalraune_fc1",3,0,2,110)
       ShowMessage("\\n<Queen Alraune>Please find it and bring it here safely.\nThen we shall perform the succession ritual.")
       ShowMessageFace("a_emp_fc1",2,0,2,111)
       ShowMessage("\\n<Priestess>You mean the farce.")
       ShowMessageFace("queenalraune_fc1",4,0,2,112)
       ShowMessage("\\n<Queen Alraune>Please take care of this, Hero Luka.\nOnce the queen's succession is completed, I shall join you.")
       ShowMessageFace("a_emp_fc1",2,0,2,113)
       ShowMessage("\\n<Priestess>Disregarding my will, are you?")
       PictureClear(5)
       PictureClear(6)
       If(0,6,0)
        ShowMessageFace("sonia_fc4",0,0,2,114)
        ShowMessage("\\n<Sonya>What do we do about this...?")
        0()
       Else()
        ShowMessageFace("ruka_fc1",0,0,2,115)
        ShowMessage("\\n<Luka>What do we do about this...?")
        0()
       EndIf()
       If(0,4,0)
        ShowMessageFace("alice_fc5",0,0,2,116)
        ShowMessage("\\n<Alice>For the time being, let's get Seedling of Light... Then we can decide what to do next with the two plants.")
        0()
       EndIf()
       If(0,5,0)
        ShowMessageFace("iriasu_fc4",2,0,2,117)
        ShowMessage("\\n<Ilias>For now, let's bring Seedling of Light here...\nWe can decide what to do with the two plants afterwards.")
        0()
       EndIf()
       ShowMessageFace("ruka_fc1",0,0,2,118)
       ShowMessage("\\n<Luka>Well then, let's go to where the [Seedling of Light] is supposed to be at the Gold Coast!")
       ChangeVariable(1084,1084,0,0,1)
       EndEventProcessing()
       0()
      EndIf()
      If(1,1084,0,1,0)
       PictureDisplay(5,"80_queenalraune_st21",0,0,0,0,100,100,0,0)
       PictureMove(5,null,0,0,0,0,100,100,255,0,30,true)
       ShowMessageFace("queenalraune_fc1",3,0,2,119)
       ShowMessage("\\n<Queen Alraune>...To succeed the queen's position, you need the [Seedling of Light]. This seedling, which has accumulated sunlight energy, shall bestow its power unto to the successor.")
       ShowMessageFace("queenalraune_fc1",3,0,2,120)
       ShowMessage("\\n<Queen Alraune>The place where this sunlight energy acumulates is...Gold Coast. You will find the [Seedling of Light] there.")
       ShowMessageFace("queenalraune_fc1",3,0,2,121)
       ShowMessage("\\n<Queen Alraune>Please find it and bring it here safely.\nThen we shall perform the succession ritual.")
       PictureClear(5)
       EndEventProcessing()
       0()
      EndIf()
      0()
     EndIf()
     0()
    IfPlayerPicksChoice(1,null)
     ShowMessageFace("queenalraune_fc1",3,0,2,122)
     ShowMessage("\\n<Queen Alraune>Is that so...\nCome see me again if you are in trouble.")
     PictureClear(5)
     EndEventProcessing()
     0()
    404()
    0()
   EndIf()
   0()
  EndIf()
  0()
 PAGE   2
  // condition: variable 1084 >= 3
  0()



EVENT   11
 PAGE   1
  // condition: switch 31 is ON
  0()



EVENT   12
 PAGE   1
  // condition: variable 1084 >= 2
  241(bytes(0x04,0x08,0x6f,0x3a,0x0d,0x52,0x50,0x47,0x3a,0x3a,0x42,0x47,0x4d,0x08,0x3a,0x0a,0x40,0x6e,0x61,0x6d,0x65,0x49,0x22,0x14,0x73,0x63,0x65,0x6e,0x65,0x5f,0x65,0x70,0x69,0x6c,0x6f,0x67,0x75,0x65,0x32,0x06,0x3a,0x06,0x45,0x54,0x3a,0x0c,0x40,0x76,0x6f,0x6c,0x75,0x6d,0x65,0x69,0x69,0x3a,0x0b,0x40,0x70,0x69,0x74,0x63,0x68,0x69,0x69))
  PictureDisplay(5,"80_a_emp_st22",0,0,-180,0,100,100,0,0)
  PictureDisplay(6,"80_queenalraune_st21",0,0,150,0,100,100,0,0)
  PictureMove(5,null,0,0,-180,0,100,100,255,0,30,false)
  PictureMove(6,null,0,0,150,0,100,100,255,0,30,true)
  ShowMessageFace("queenalraune_fc1",3,0,2,1)
  ShowMessage("\\n<Former Queen Alraune>With this, the irreversible succession of the queen's position has been completed. Finally, I feel as if a heavy burden has been lifted from my shoulders...")
  ShowMessageFace("a_emp_fc1",4,0,2,2)
  ShowMessage("\\n<Priestess>Yes...you forced all of that burden onto me. I'm sure it feels lighter.")
  If(0,6,0)
   ShowMessageFace("sonia_fc2",2,0,2,3)
   ShowMessage("\\n<Sonya>Could it be that some of the brainwashing is remaining in her?")
   0()
  Else()
   ShowMessageFace("ruka_fc1",0,0,2,4)
   ShowMessage("\\n<Luka>Is there some brainwashing remaining in her...?")
   0()
  EndIf()
  If(0,4,0)
   ShowMessageFace("alice_fc5",3,0,2,5)
   ShowMessage("\\n<Alice>This was probably a result of social stress...")
   0()
  EndIf()
  If(0,5,0)
   ShowMessageFace("iriasu_fc4",2,0,2,6)
   ShowMessage("\\n<Ilias>This was likely because of social stress...\nNow that I think about it, the Seraphs also had mental problems.")
   0()
  EndIf()
  ShowMessageFace("a_emp_fc1",3,0,2,7)
  ShowMessage("\\n<Priestess>...In any case, what's happened cannot be undone. It might not be a bad idea to become defiant and start a reign of terror.")
  ShowMessageFace("queenalraune_fc1",3,0,2,8)
  ShowMessage("\\n<Ex-Queen Alraune>But in the end, we alraunes are gentle-hearted... No matter what you say, you are incapable of doing serious evil.")
  ShowMessageFace("a_emp_fc1",4,0,2,9)
  ShowMessage("\\n<Priestess>And so, everyone...\nEven though I have become the queen, I will continue traveling with you. Don't worry about me.")
  PictureClear(5)
  PictureClear(6)
  ChangeSwitch(1914,1914,0)
  355("add_actor_ex(242)")
  If(12,"actor_class_level_over?(241, 326, 1)")
   0()
  Else()
   355("gain_actor_exp(241, :base, 880000, false, false)")
   355("set_class_level(241, 320, 10, false, false)")
   655("set_class_level(241, 321, 10, false, false)")
   655("set_class_level(241, 322, 10, false, false)")
   655("set_class_level(241, 323, 10, false, false)")
   655("set_class_level(241, 324, 10, false, false)")
   655("set_class_level(241, 325, 10, false, false)")
   655("set_class_level(241, 326, 1, false, true)")
   314(0,242)
   0()
  EndIf()
  249(bytes(0x04,0x08,0x6f,0x3a,0x0c,0x52,0x50,0x47,0x3a,0x3a,0x4d,0x45,0x08,0x3a,0x0a,0x40,0x6e,0x61,0x6d,0x65,0x49,0x22,0x0c,0x66,0x61,0x6e,0x66,0x61,0x6c,0x65,0x06,0x3a,0x06,0x45,0x54,0x3a,0x0b,0x40,0x70,0x69,0x74,0x63,0x68,0x69,0x69,0x3a,0x0c,0x40,0x76,0x6f,0x6c,0x75,0x6d,0x65,0x69,0x69))
  ShowMessageFace("",0,0,2,10)
  ShowMessage("Priestess has joined the party once again!")
  Wait(60)
  PictureDisplay(5,"80_queenalraune_st21",0,0,0,0,100,100,0,0)
  PictureMove(5,null,0,0,0,0,100,100,255,0,30,true)
  ShowMessageFace("queenalraune_fc1",3,0,2,11)
  ShowMessage("\\n<Former Queen Alraune>Now that the queen's succession is over, I have no regrets. I shall join you in your adventures...")
  PictureClear(5)
  205(10,bytes(0x04,0x08,0x6f,0x3a,0x13,0x52,0x50,0x47,0x3a,0x3a,0x4d,0x6f,0x76,0x65,0x52,0x6f,0x75,0x74,0x65,0x09,0x3a,0x0c,0x40,0x72,0x65,0x70,0x65,0x61,0x74,0x46,0x3a,0x0f,0x40,0x73,0x6b,0x69,0x70,0x70,0x61,0x62,0x6c,0x65,0x46,0x3a,0x0a,0x40,0x77,0x61,0x69,0x74,0x54,0x3a,0x0a,0x40,0x6c,0x69,0x73,0x74,0x5b,0x09,0x6f,0x3a,0x15,0x52,0x50,0x47,0x3a,0x3a,0x4d,0x6f,0x76,0x65,0x43,0x6f,0x6d,0x6d,0x61,0x6e,0x64,0x07,0x3a,0x0a,0x40,0x63,0x6f,0x64,0x65,0x69,0x2a,0x3a,0x10,0x40,0x70,0x61,0x72,0x61,0x6d,0x65,0x74,0x65,0x72,0x73,0x5b,0x00,0x6f,0x3b,0x0a,0x07,0x3b,0x0b,0x69,0x0f,0x3b,0x0c,0x5b,0x00,0x6f,0x3b,0x0a,0x07,0x3b,0x0b,0x69,0x2c,0x3b,0x0c,0x5b,0x00,0x6f,0x3b,0x0a,0x07,0x3b,0x0b,0x69,0x00,0x3b,0x0c,0x5b,0x00))
  355("add_actor_ex(322)")
  249(bytes(0x04,0x08,0x6f,0x3a,0x0c,0x52,0x50,0x47,0x3a,0x3a,0x4d,0x45,0x08,0x3a,0x0a,0x40,0x6e,0x61,0x6d,0x65,0x49,0x22,0x0c,0x66,0x61,0x6e,0x66,0x61,0x6c,0x65,0x06,0x3a,0x06,0x45,0x54,0x3a,0x0b,0x40,0x70,0x69,0x74,0x63,0x68,0x69,0x69,0x3a,0x0c,0x40,0x76,0x6f,0x6c,0x75,0x6d,0x65,0x69,0x69))
  ShowMessageFace("",0,0,2,12)
  ShowMessage("Alrauna has joined the party!")
  Wait(60)
  ChangeVariable(1084,1084,0,0,3)
  355("gain_medal(2101)")
  ShowMessageFace("queenalraune_fc1",3,0,2,13)
  ShowMessage("\\n<Alruna>Still, this feeling of liberation is wonderful.\nThe air I breathe tastes so sweet without queen's position...")
  ShowMessageFace("a_emp_fc1",4,0,2,14)
  ShowMessage("\\n<Priestess>That's good for you.\nThe air I breathe as the queen tastes like gastric juice.")
  ShowMessageFace("queenalraune_fc1",3,0,2,15)
  ShowMessage("\\n<Alruna>As your predecessor, I will give you some parting advice. Find a successor, and appoint her to become the leader of Plansect Village.")
  ShowMessageFace("queenalraune_fc1",3,0,2,16)
  ShowMessage("\\n<Alruna>After that, make her search for the [Seedling of Light].\nThen she's as good as yours.")
  ShowMessageFace("a_emp_fc1",3,0,2,17)
  ShowMessage("\\n<Priestess>Could it be that you too were...?")
  ShowMessageFace("queenalraune_fc1",3,0,2,18)
  ShowMessage("\\n<Alruna>...Yes, I was set up by my predecessor.\nAnd I heard that she too, was set up by her predecessor in the same manner.")
  ShowMessageFace("a_emp_fc1",4,0,2,19)
  ShowMessage("\\n<Priestess>So the post is black in every generation...")
  ShowMessageFace("queenalraune_fc1",3,0,2,20)
  ShowMessage("\\n<Alruna>It's green, as we are plants.\nWelcome to your green post.")
  ShowMessageFace("a_emp_fc1",4,0,2,21)
  ShowMessage("\\n<Priestess>Ufufufufu...")
  ShowMessageFace("queenalraune_fc1",3,0,2,22)
  ShowMessage("\\n<Alruna>Ahahahahaha...")
  If(0,6,0)
   ShowMessageFace("sonia_fc4",0,0,2,23)
   ShowMessage("\\n<Sonya>(I don't know what to say...)")
   0()
  EndIf()
  241(bytes(0x04,0x08,0x6f,0x3a,0x0d,0x52,0x50,0x47,0x3a,0x3a,0x42,0x47,0x4d,0x08,0x3a,0x0a,0x40,0x6e,0x61,0x6d,0x65,0x49,0x22,0x19,0x64,0x75,0x6e,0x67,0x65,0x6f,0x6e,0x5f,0x73,0x65,0x69,0x72,0x65,0x69,0x6e,0x6f,0x6d,0x6f,0x72,0x69,0x06,0x3a,0x06,0x45,0x54,0x3a,0x0c,0x40,0x76,0x6f,0x6c,0x75,0x6d,0x65,0x69,0x69,0x3a,0x0b,0x40,0x70,0x69,0x74,0x63,0x68,0x69,0x69))
  TeleportVehicle(1,0,2,24,333)
  EndEventProcessing()
  0()
 PAGE   2
  // condition: variable 1084 >= 3
  0()



EVENT   13
 PAGE   1
  250(bytes(0x04,0x08,0x6f,0x3a,0x0c,0x52,0x50,0x47,0x3a,0x3a,0x53,0x45,0x08,0x3a,0x0a,0x40,0x6e,0x61,0x6d,0x65,0x49,0x22,0x0a,0x48,0x65,0x61,0x6c,0x37,0x06,0x3a,0x06,0x45,0x54,0x3a,0x0b,0x40,0x70,0x69,0x74,0x63,0x68,0x69,0x69,0x3a,0x0c,0x40,0x76,0x6f,0x6c,0x75,0x6d,0x65,0x69,0x55))
  224(bytes(0x04,0x08,0x75,0x3a,0x0a,0x43,0x6f,0x6c,0x6f,0x72,0x25,0x00,0x00,0x00,0x00,0x00,0xe0,0x6f,0x40,0x00,0x00,0x00,0x00,0x00,0xe0,0x6f,0x40,0x00,0x00,0x00,0x00,0x00,0xe0,0x6f,0x40,0x00,0x00,0x00,0x00,0x00,0xe0,0x6f,0x40),30,true)
  314(0,0)
  ShowMessageFace("",0,0,2,1)
  ShowMessage("The party's HP and MP have been fully restored!")
  0()
