// EVENT 0350
Name "Grangold Spider Event"

ScrollMap(8,3,4)
Wait(90)
PictureDisplay(5,"80_tutigumo_st11",0,0,0,0,100,100,0,0)
PictureMove(5,null,0,0,0,0,100,100,255,0,30,true)
ShowMessageFace("tutigumo_fc1",0,0,2,1)
ShowMessage("\\n<Sexy Tsuchigumo>The palace is on the verge of being taken.\nYou're too late to stop us now...")
If(0,4,0)
 ShowMessageFace("alice_fc6",1,0,2,2)
 ShowMessage("\\n<Alice>Hey, get out of our way!")
 0()
EndIf()
If(0,5,0)
 ShowMessageFace("iriasu_fc4",7,0,2,3)
 ShowMessage("\\n<Ilias>Step aside! We have business with the Spider Princess!")
 0()
EndIf()
ShowMessageFace("tutigumo_fc1",1,0,2,4)
ShowMessage("\\n<Sexy Tsuchigumo>You'll be my prey then.\nOffer all your fresh bodily fluids to me...")
ShowMessageFace("ruka_fc1",0,0,2,5)
ShowMessage("\\n<Luka>Yeah right, there's no way that's happening!")
If(4,240,0)
 ShowMessageFace("dina_fc1",0,0,2,6)
 ShowMessage("\\n<Deana>I'm hungry. Let me eat her...")
 0()
EndIf()
PictureClear(5)
ChangeSwitch(81,81,0)
Battle(0,804,false,false)
281(1)
TeleportPlayer(0,721,47,21,8,2)
ChangeSwitch(31,31,0)
ShowMessageFace("tutigumo_fc1",2,0,2,7)
ShowMessage("\\n<Sexy Tsuchigumo>How could I possibly lose...")
ChangeSwitch(32,32,0)
ShowMessageFace("alakneload_fc1",2,0,2,8)
ShowMessage("\\n<Arachne Lord>What!? Tsuchigumo was defeated?")
205(195,bytes(0x04,0x08,0x6f,0x3a,0x13,0x52,0x50,0x47,0x3a,0x3a,0x4d,0x6f,0x76,0x65,0x52,0x6f,0x75,0x74,0x65,0x09,0x3a,0x0c,0x40,0x72,0x65,0x70,0x65,0x61,0x74,0x46,0x3a,0x0f,0x40,0x73,0x6b,0x69,0x70,0x70,0x61,0x62,0x6c,0x65,0x46,0x3a,0x0a,0x40,0x77,0x61,0x69,0x74,0x54,0x3a,0x0a,0x40,0x6c,0x69,0x73,0x74,0x5b,0x07,0x6f,0x3a,0x15,0x52,0x50,0x47,0x3a,0x3a,0x4d,0x6f,0x76,0x65,0x43,0x6f,0x6d,0x6d,0x61,0x6e,0x64,0x07,0x3a,0x0a,0x40,0x63,0x6f,0x64,0x65,0x69,0x13,0x3a,0x10,0x40,0x70,0x61,0x72,0x61,0x6d,0x65,0x74,0x65,0x72,0x73,0x5b,0x07,0x69,0x00,0x69,0x09,0x6f,0x3b,0x0a,0x07,0x3b,0x0b,0x69,0x00,0x3b,0x0c,0x5b,0x00))
505(bytes(0x04,0x08,0x6f,0x3a,0x15,0x52,0x50,0x47,0x3a,0x3a,0x4d,0x6f,0x76,0x65,0x43,0x6f,0x6d,0x6d,0x61,0x6e,0x64,0x07,0x3a,0x0a,0x40,0x63,0x6f,0x64,0x65,0x69,0x13,0x3a,0x10,0x40,0x70,0x61,0x72,0x61,0x6d,0x65,0x74,0x65,0x72,0x73,0x5b,0x07,0x69,0x00,0x69,0x09))
Wait(30)
PictureDisplay(5,"80_alakneload_st01",0,0,0,0,100,100,0,0)
PictureMove(5,null,0,0,0,0,100,100,255,0,30,true)
ShowMessageFace("alakneload_fc1",0,0,2,9)
ShowMessage("\\n<Arachne Lord>I won't allow you anywhere near the Spider Princess!")
If(0,4,0)
 ShowMessageFace("alice_fc6",1,0,2,10)
 ShowMessage("\\n<Alice>Looks like we'll have to clear them out one by one!")
 0()
EndIf()
If(0,5,0)
 ShowMessageFace("iriasu_fc4",7,0,2,11)
 ShowMessage("\\n<Ilias>How annoying... Let's force our way through!")
 0()
EndIf()
PictureClear(5)
Battle(0,805,false,false)
ShowMessageFace("alakneload_fc1",2,0,2,12)
ShowMessage("\\n<Arachne Lord>This hero is strong!\nBut you're too late! Our vanguard is already inside the palace.")
ChangeSwitch(32,32,1)
If(0,4,0)
 ShowMessageFace("alice_fc6",0,0,2,13)
 ShowMessage("\\n<Alice>Oh no, whatever will we do?!")
 0()
EndIf()
If(0,5,0)
 ShowMessageFace("iriasu_fc4",7,0,2,14)
 ShowMessage("\\n<Ilias>Someone's too late, and it isn't us...")
 0()
EndIf()
If(4,520,0)
 ShowMessageFace("lazarus3_fc1",0,0,2,15)
 ShowMessage("\\n<Lazarus>Oi oi, we're too late eh...\nIs it too late to run away?")
 0()
EndIf()
241(bytes(0x04,0x08,0x6f,0x3a,0x0d,0x52,0x50,0x47,0x3a,0x3a,0x42,0x47,0x4d,0x08,0x3a,0x0a,0x40,0x6e,0x61,0x6d,0x65,0x49,0x22,0x0a,0x6b,0x69,0x6b,0x69,0x32,0x06,0x3a,0x06,0x45,0x54,0x3a,0x0c,0x40,0x76,0x6f,0x6c,0x75,0x6d,0x65,0x69,0x69,0x3a,0x0b,0x40,0x70,0x69,0x74,0x63,0x68,0x69,0x69))
ScrollMap(8,14,5)
Wait(120)
ChangeSwitch(33,33,0)
205(34,bytes(0x04,0x08,0x6f,0x3a,0x13,0x52,0x50,0x47,0x3a,0x3a,0x4d,0x6f,0x76,0x65,0x52,0x6f,0x75,0x74,0x65,0x09,0x3a,0x0c,0x40,0x72,0x65,0x70,0x65,0x61,0x74,0x46,0x3a,0x0f,0x40,0x73,0x6b,0x69,0x70,0x70,0x61,0x62,0x6c,0x65,0x46,0x3a,0x0a,0x40,0x77,0x61,0x69,0x74,0x54,0x3a,0x0a,0x40,0x6c,0x69,0x73,0x74,0x5b,0x08,0x6f,0x3a,0x15,0x52,0x50,0x47,0x3a,0x3a,0x4d,0x6f,0x76,0x65,0x43,0x6f,0x6d,0x6d,0x61,0x6e,0x64,0x07,0x3a,0x0a,0x40,0x63,0x6f,0x64,0x65,0x69,0x06,0x3a,0x10,0x40,0x70,0x61,0x72,0x61,0x6d,0x65,0x74,0x65,0x72,0x73,0x5b,0x00,0x6f,0x3b,0x0a,0x07,0x3b,0x0b,0x69,0x06,0x3b,0x0c,0x5b,0x00,0x6f,0x3b,0x0a,0x07,0x3b,0x0b,0x69,0x00,0x3b,0x0c,0x5b,0x00))
505(bytes(0x04,0x08,0x6f,0x3a,0x15,0x52,0x50,0x47,0x3a,0x3a,0x4d,0x6f,0x76,0x65,0x43,0x6f,0x6d,0x6d,0x61,0x6e,0x64,0x07,0x3a,0x0a,0x40,0x63,0x6f,0x64,0x65,0x69,0x06,0x3a,0x10,0x40,0x70,0x61,0x72,0x61,0x6d,0x65,0x74,0x65,0x72,0x73,0x5b,0x00))
505(bytes(0x04,0x08,0x6f,0x3a,0x15,0x52,0x50,0x47,0x3a,0x3a,0x4d,0x6f,0x76,0x65,0x43,0x6f,0x6d,0x6d,0x61,0x6e,0x64,0x07,0x3a,0x0a,0x40,0x63,0x6f,0x64,0x65,0x69,0x06,0x3a,0x10,0x40,0x70,0x61,0x72,0x61,0x6d,0x65,0x74,0x65,0x72,0x73,0x5b,0x00))
Wait(30)
PictureDisplay(5,"80_kumonomiko_st01",0,0,0,0,100,100,0,0)
PictureMove(5,null,0,0,0,0,100,100,255,0,60,true)
ShowMessageFace("kumonomiko_fc1",0,0,2,16)
ShowMessage("\\n<Spider Princess>What do you have to report?\nDid you capture the King of Grangold?")
ShowMessageFace("arachnes_fc2",2,0,2,17)
ShowMessage("\\n<Arachnes>Actually... The inside of the palace is a wreck. No one was there. I think the place collapsed before we even attacked.")
PictureDisplay(5,"80_kumonomiko_st03",0,0,0,0,100,100,255,0)
ShowMessageFace("kumonomiko_fc1",2,0,2,18)
ShowMessage("\\n<Spider Princess>What? You've got to be kidding!")
PictureClear(5)
Wait(60)
205(148,bytes(0x04,0x08,0x6f,0x3a,0x13,0x52,0x50,0x47,0x3a,0x3a,0x4d,0x6f,0x76,0x65,0x52,0x6f,0x75,0x74,0x65,0x09,0x3a,0x0c,0x40,0x72,0x65,0x70,0x65,0x61,0x74,0x46,0x3a,0x0f,0x40,0x73,0x6b,0x69,0x70,0x70,0x61,0x62,0x6c,0x65,0x46,0x3a,0x0a,0x40,0x77,0x61,0x69,0x74,0x54,0x3a,0x0a,0x40,0x6c,0x69,0x73,0x74,0x5b,0x08,0x6f,0x3a,0x15,0x52,0x50,0x47,0x3a,0x3a,0x4d,0x6f,0x76,0x65,0x43,0x6f,0x6d,0x6d,0x61,0x6e,0x64,0x07,0x3a,0x0a,0x40,0x63,0x6f,0x64,0x65,0x69,0x09,0x3a,0x10,0x40,0x70,0x61,0x72,0x61,0x6d,0x65,0x74,0x65,0x72,0x73,0x5b,0x00,0x6f,0x3b,0x0a,0x07,0x3b,0x0b,0x69,0x09,0x3b,0x0c,0x5b,0x00,0x6f,0x3b,0x0a,0x07,0x3b,0x0b,0x69,0x00,0x3b,0x0c,0x5b,0x00))
505(bytes(0x04,0x08,0x6f,0x3a,0x15,0x52,0x50,0x47,0x3a,0x3a,0x4d,0x6f,0x76,0x65,0x43,0x6f,0x6d,0x6d,0x61,0x6e,0x64,0x07,0x3a,0x0a,0x40,0x63,0x6f,0x64,0x65,0x69,0x09,0x3a,0x10,0x40,0x70,0x61,0x72,0x61,0x6d,0x65,0x74,0x65,0x72,0x73,0x5b,0x00))
505(bytes(0x04,0x08,0x6f,0x3a,0x15,0x52,0x50,0x47,0x3a,0x3a,0x4d,0x6f,0x76,0x65,0x43,0x6f,0x6d,0x6d,0x61,0x6e,0x64,0x07,0x3a,0x0a,0x40,0x63,0x6f,0x64,0x65,0x69,0x09,0x3a,0x10,0x40,0x70,0x61,0x72,0x61,0x6d,0x65,0x74,0x65,0x72,0x73,0x5b,0x00))
205(54,bytes(0x04,0x08,0x6f,0x3a,0x13,0x52,0x50,0x47,0x3a,0x3a,0x4d,0x6f,0x76,0x65,0x52,0x6f,0x75,0x74,0x65,0x09,0x3a,0x0c,0x40,0x72,0x65,0x70,0x65,0x61,0x74,0x46,0x3a,0x0f,0x40,0x73,0x6b,0x69,0x70,0x70,0x61,0x62,0x6c,0x65,0x46,0x3a,0x0a,0x40,0x77,0x61,0x69,0x74,0x54,0x3a,0x0a,0x40,0x6c,0x69,0x73,0x74,0x5b,0x07,0x6f,0x3a,0x15,0x52,0x50,0x47,0x3a,0x3a,0x4d,0x6f,0x76,0x65,0x43,0x6f,0x6d,0x6d,0x61,0x6e,0x64,0x07,0x3a,0x0a,0x40,0x63,0x6f,0x64,0x65,0x69,0x15,0x3a,0x10,0x40,0x70,0x61,0x72,0x61,0x6d,0x65,0x74,0x65,0x72,0x73,0x5b,0x00,0x6f,0x3b,0x0a,0x07,0x3b,0x0b,0x69,0x00,0x3b,0x0c,0x5b,0x00))
505(bytes(0x04,0x08,0x6f,0x3a,0x15,0x52,0x50,0x47,0x3a,0x3a,0x4d,0x6f,0x76,0x65,0x43,0x6f,0x6d,0x6d,0x61,0x6e,0x64,0x07,0x3a,0x0a,0x40,0x63,0x6f,0x64,0x65,0x69,0x15,0x3a,0x10,0x40,0x70,0x61,0x72,0x61,0x6d,0x65,0x74,0x65,0x72,0x73,0x5b,0x00))
ShowMessageFace("arachnes_fc3",2,0,2,19)
ShowMessage("\\n<Arachnes>Your Majesty! A human hero defeated Tsuchigumo and the Arachne Lords! He'll be here any second!")
ShowMessageFace("kumonomiko_fc1",2,0,2,20)
ShowMessage("\\n<Spider Princess>They lost to a human? He must be quite--")
Wait(60)
250(bytes(0x04,0x08,0x6f,0x3a,0x0c,0x52,0x50,0x47,0x3a,0x3a,0x53,0x45,0x08,0x3a,0x0a,0x40,0x6e,0x61,0x6d,0x65,0x49,0x22,0x0d,0x6d,0x6f,0x6e,0x5f,0x62,0x6f,0x6d,0x31,0x06,0x3a,0x06,0x45,0x54,0x3a,0x0b,0x40,0x70,0x69,0x74,0x63,0x68,0x69,0x69,0x3a,0x0c,0x40,0x76,0x6f,0x6c,0x75,0x6d,0x65,0x69,0x69))
225(7,7,120,true)
ShowMessageFace("kumonomiko_fc1",2,0,2,21)
ShowMessage("\\n<Spider Princess>GAH, what now!?")
ChangeSwitch(37,37,0)
ScrollMap(6,16,5)
ScrollMap(2,9,5)
Wait(120)
241(bytes(0x04,0x08,0x6f,0x3a,0x0d,0x52,0x50,0x47,0x3a,0x3a,0x42,0x47,0x4d,0x08,0x3a,0x0a,0x40,0x6e,0x61,0x6d,0x65,0x49,0x22,0x0a,0x6b,0x69,0x6b,0x69,0x34,0x06,0x3a,0x06,0x45,0x54,0x3a,0x0c,0x40,0x76,0x6f,0x6c,0x75,0x6d,0x65,0x69,0x69,0x3a,0x0b,0x40,0x70,0x69,0x74,0x63,0x68,0x69,0x69))
PictureDisplay(5,"80_grangold_st11",0,0,0,0,100,100,0,0)
PictureMove(5,null,0,0,0,0,100,100,255,0,60,true)
ShowMessageFace("grangold_fc2",0,0,2,22)
ShowMessage("\\n<King of Grangold>Invaders, how dare you trample through my capital!")
PictureClear(5)
Wait(60)
205(82,bytes(0x04,0x08,0x6f,0x3a,0x13,0x52,0x50,0x47,0x3a,0x3a,0x4d,0x6f,0x76,0x65,0x52,0x6f,0x75,0x74,0x65,0x09,0x3a,0x0c,0x40,0x72,0x65,0x70,0x65,0x61,0x74,0x46,0x3a,0x0f,0x40,0x73,0x6b,0x69,0x70,0x70,0x61,0x62,0x6c,0x65,0x46,0x3a,0x0a,0x40,0x77,0x61,0x69,0x74,0x54,0x3a,0x0a,0x40,0x6c,0x69,0x73,0x74,0x5b,0x08,0x6f,0x3a,0x15,0x52,0x50,0x47,0x3a,0x3a,0x4d,0x6f,0x76,0x65,0x43,0x6f,0x6d,0x6d,0x61,0x6e,0x64,0x07,0x3a,0x0a,0x40,0x63,0x6f,0x64,0x65,0x69,0x06,0x3a,0x10,0x40,0x70,0x61,0x72,0x61,0x6d,0x65,0x74,0x65,0x72,0x73,0x5b,0x00,0x6f,0x3b,0x0a,0x07,0x3b,0x0b,0x69,0x06,0x3b,0x0c,0x5b,0x00,0x6f,0x3b,0x0a,0x07,0x3b,0x0b,0x69,0x00,0x3b,0x0c,0x5b,0x00))
505(bytes(0x04,0x08,0x6f,0x3a,0x15,0x52,0x50,0x47,0x3a,0x3a,0x4d,0x6f,0x76,0x65,0x43,0x6f,0x6d,0x6d,0x61,0x6e,0x64,0x07,0x3a,0x0a,0x40,0x63,0x6f,0x64,0x65,0x69,0x06,0x3a,0x10,0x40,0x70,0x61,0x72,0x61,0x6d,0x65,0x74,0x65,0x72,0x73,0x5b,0x00))
505(bytes(0x04,0x08,0x6f,0x3a,0x15,0x52,0x50,0x47,0x3a,0x3a,0x4d,0x6f,0x76,0x65,0x43,0x6f,0x6d,0x6d,0x61,0x6e,0x64,0x07,0x3a,0x0a,0x40,0x63,0x6f,0x64,0x65,0x69,0x06,0x3a,0x10,0x40,0x70,0x61,0x72,0x61,0x6d,0x65,0x74,0x65,0x72,0x73,0x5b,0x00))
PictureDisplay(5,"80_grangold_st11",0,0,0,0,100,100,0,0)
PictureMove(5,null,0,0,0,0,100,100,255,0,30,true)
ShowMessageFace("grangold_fc2",0,0,2,23)
ShowMessage("\\n<King of Grangold>Die...")
PictureClear(5)
Wait(60)
212(196,813,false)
Wait(60)
ChangeSwitch(34,34,0)
ShowMessageFace("arachnes_fc2",2,0,2,24)
ShowMessage("\\n<Arachnes>Kyaaaaaa!!")
Wait(60)
ShowMessageFace("grangold_fc2",0,0,2,25)
ShowMessage("\\n<King of Grangold>.........")
ShowMessageFace("kumonomiko_fc1",2,0,2,26)
ShowMessage("\\n<Spider Princess>What the hell is THAT!?\nSome human superweapon!?")
If(0,6,0)
 ShowMessageFace("sonia_fc3",2,0,2,27)
 ShowMessage("\\n<Sonya>The king is taking them on himself!!")
 0()
Else()
 ShowMessageFace("ruka_fc1",0,0,2,28)
 ShowMessage("\\n<Luka>The king took the field!")
 0()
EndIf()
250(bytes(0x04,0x08,0x6f,0x3a,0x0c,0x52,0x50,0x47,0x3a,0x3a,0x53,0x45,0x08,0x3a,0x0a,0x40,0x6e,0x61,0x6d,0x65,0x49,0x22,0x0d,0x6d,0x6f,0x6e,0x5f,0x77,0x61,0x72,0x70,0x06,0x3a,0x06,0x45,0x54,0x3a,0x0b,0x40,0x70,0x69,0x74,0x63,0x68,0x69,0x69,0x3a,0x0c,0x40,0x76,0x6f,0x6c,0x75,0x6d,0x65,0x69,0x55))
ChangeSwitch(35,35,0)
205(82,bytes(0x04,0x08,0x6f,0x3a,0x13,0x52,0x50,0x47,0x3a,0x3a,0x4d,0x6f,0x76,0x65,0x52,0x6f,0x75,0x74,0x65,0x09,0x3a,0x0c,0x40,0x72,0x65,0x70,0x65,0x61,0x74,0x46,0x3a,0x0f,0x40,0x73,0x6b,0x69,0x70,0x70,0x61,0x62,0x6c,0x65,0x46,0x3a,0x0a,0x40,0x77,0x61,0x69,0x74,0x54,0x3a,0x0a,0x40,0x6c,0x69,0x73,0x74,0x5b,0x07,0x6f,0x3a,0x15,0x52,0x50,0x47,0x3a,0x3a,0x4d,0x6f,0x76,0x65,0x43,0x6f,0x6d,0x6d,0x61,0x6e,0x64,0x07,0x3a,0x0a,0x40,0x63,0x6f,0x64,0x65,0x69,0x16,0x3a,0x10,0x40,0x70,0x61,0x72,0x61,0x6d,0x65,0x74,0x65,0x72,0x73,0x5b,0x00,0x6f,0x3b,0x0a,0x07,0x3b,0x0b,0x69,0x00,0x3b,0x0c,0x5b,0x00))
505(bytes(0x04,0x08,0x6f,0x3a,0x15,0x52,0x50,0x47,0x3a,0x3a,0x4d,0x6f,0x76,0x65,0x43,0x6f,0x6d,0x6d,0x61,0x6e,0x64,0x07,0x3a,0x0a,0x40,0x63,0x6f,0x64,0x65,0x69,0x16,0x3a,0x10,0x40,0x70,0x61,0x72,0x61,0x6d,0x65,0x74,0x65,0x72,0x73,0x5b,0x00))
ShowMessageFace("kumonomiko_fc1",2,0,2,29)
ShowMessage("\\n<Spider Princess>GAH, I'll deal with him personally!\nAtlach-Nacha, you handle the hero!")
ChangeSwitch(36,36,0)
ScrollMap(2,5,5)
ScrollMap(4,16,5)
Wait(150)
PictureDisplay(5,"80_atlach_st01",0,0,0,0,100,100,0,0)
PictureMove(5,null,0,0,0,0,100,100,255,0,30,true)
ShowMessageFace("atlach_fc1",0,0,2,30)
ShowMessage("\\n<Atlach-Nacha>Understood, Your Majesty.")
If(0,4,0)
 ShowMessageFace("alice_fc5",2,0,2,31)
 ShowMessage("\\n<Alice>Atlach-Nacha is the most evolved species of spider, but that isn't going to be enough to stop us!")
 0()
EndIf()
If(0,5,0)
 ShowMessageFace("iriasu_fc4",7,0,2,32)
 ShowMessage("\\n<Ilias>Atlach-Nacha is the most evolved species of spider! However, that is not going to be enough to stop us!")
 0()
EndIf()
PictureDisplay(5,"80_atlach_st02",0,0,0,0,100,100,255,0)
ShowMessageFace("atlach_fc1",0,0,2,33)
ShowMessage("\\n<Atlach-Nacha>You aren't giving me much credit.\nYou'll change your tune when I have your lives dangling from my strings...")
ShowMessageFace("ruka_fc1",0,0,2,34)
ShowMessage("\\n<Luka>You're leaving Grangold even if we have to physically throw you out!")
If(4,45,0)
 ShowMessageFace("alicetromeria_fc1",4,0,2,35)
 ShowMessage("\\n<Alicetroemeria>Let's have some fun...")
 0()
EndIf()
PictureClear(5)
Battle(0,806,false,false)
ChangeSwitch(81,81,1)
ChangeSwitch(36,36,1)
If(0,4,0)
 ShowMessageFace("alice_fc5",2,0,2,36)
 ShowMessage("\\n<Alice>Hmph, these third-rate lackeys are nothing to us!")
 0()
EndIf()
If(0,5,0)
 ShowMessageFace("iriasu_fc4",7,0,2,37)
 ShowMessage("\\n<Ilias>These third-rate lackeys cannot stand in our way!")
 0()
EndIf()
ScrollMap(6,15,5)
205(214,bytes(0x04,0x08,0x6f,0x3a,0x13,0x52,0x50,0x47,0x3a,0x3a,0x4d,0x6f,0x76,0x65,0x52,0x6f,0x75,0x74,0x65,0x09,0x3a,0x0c,0x40,0x72,0x65,0x70,0x65,0x61,0x74,0x46,0x3a,0x0f,0x40,0x73,0x6b,0x69,0x70,0x70,0x61,0x62,0x6c,0x65,0x46,0x3a,0x0a,0x40,0x77,0x61,0x69,0x74,0x54,0x3a,0x0a,0x40,0x6c,0x69,0x73,0x74,0x5b,0x07,0x6f,0x3a,0x15,0x52,0x50,0x47,0x3a,0x3a,0x4d,0x6f,0x76,0x65,0x43,0x6f,0x6d,0x6d,0x61,0x6e,0x64,0x07,0x3a,0x0a,0x40,0x63,0x6f,0x64,0x65,0x69,0x15,0x3a,0x10,0x40,0x70,0x61,0x72,0x61,0x6d,0x65,0x74,0x65,0x72,0x73,0x5b,0x00,0x6f,0x3b,0x0a,0x07,0x3b,0x0b,0x69,0x00,0x3b,0x0c,0x5b,0x00))
505(bytes(0x04,0x08,0x6f,0x3a,0x15,0x52,0x50,0x47,0x3a,0x3a,0x4d,0x6f,0x76,0x65,0x43,0x6f,0x6d,0x6d,0x61,0x6e,0x64,0x07,0x3a,0x0a,0x40,0x63,0x6f,0x64,0x65,0x69,0x15,0x3a,0x10,0x40,0x70,0x61,0x72,0x61,0x6d,0x65,0x74,0x65,0x72,0x73,0x5b,0x00))
Wait(120)
PictureDisplay(5,"80_kumonomiko_st03",0,0,0,0,100,100,0,0)
PictureMove(5,null,0,0,0,0,100,100,255,0,30,true)
ShowMessageFace("kumonomiko_fc1",2,0,2,38)
ShowMessage("\\n<Spider Princess>GAH, I have no idea what's even going on here! None of this makes any sense!")
ShowMessageFace("kumonomiko_fc1",2,0,2,39)
ShowMessage("\\n<Spider Princess>Fall back for now!\nEveryone, retreat!!")
PictureClear(5)
Wait(60)
250(bytes(0x04,0x08,0x6f,0x3a,0x0c,0x52,0x50,0x47,0x3a,0x3a,0x53,0x45,0x08,0x3a,0x0a,0x40,0x6e,0x61,0x6d,0x65,0x49,0x22,0x0d,0x6d,0x6f,0x6e,0x5f,0x77,0x61,0x72,0x70,0x06,0x3a,0x06,0x45,0x54,0x3a,0x0b,0x40,0x70,0x69,0x74,0x63,0x68,0x69,0x69,0x3a,0x0c,0x40,0x76,0x6f,0x6c,0x75,0x6d,0x65,0x69,0x55))
ChangeSwitch(35,35,1)
ScrollMap(4,15,5)
Wait(120)
241(bytes(0x04,0x08,0x6f,0x3a,0x0d,0x52,0x50,0x47,0x3a,0x3a,0x42,0x47,0x4d,0x08,0x3a,0x0a,0x40,0x6e,0x61,0x6d,0x65,0x49,0x22,0x14,0x73,0x63,0x65,0x6e,0x65,0x5f,0x65,0x70,0x69,0x6c,0x6f,0x67,0x75,0x65,0x32,0x06,0x3a,0x06,0x45,0x54,0x3a,0x0c,0x40,0x76,0x6f,0x6c,0x75,0x6d,0x65,0x69,0x69,0x3a,0x0b,0x40,0x70,0x69,0x74,0x63,0x68,0x69,0x69))
If(0,4,0)
 ShowMessageFace("alice_fc5",1,0,2,40)
 ShowMessage("\\n<Alice>That was a lot of trouble, but we can't complain about this result. The rest of the spider army should be withdrawing now.")
 0()
EndIf()
If(0,5,0)
 ShowMessageFace("iriasu_fc4",0,0,2,41)
 ShowMessage("\\n<Ilias>That was certainly unexpected, but the results speak for themselves. The rest of the spider army should be withdrawing now.")
 0()
EndIf()
If(4,45,0)
 ShowMessageFace("alicetromeria_fc1",4,0,2,42)
 ShowMessage("\\n<Alicetroemeria>That was over too quickly.\nI didn't get to have nearly enough fun.")
 0()
EndIf()
If(0,6,0)
 ShowMessageFace("sonia_fc2",2,0,2,43)
 ShowMessage("\\n<Sonya>The King of Grangold went kind of nuts, though.\nIs he going to be okay?")
 0()
Else()
 ShowMessageFace("ruka_fc1",0,0,2,44)
 ShowMessage("\\n<Luka>The King of Grangold went kind of nuts, though.\nIs he going to be okay?")
 0()
EndIf()
250(bytes(0x04,0x08,0x6f,0x3a,0x0c,0x52,0x50,0x47,0x3a,0x3a,0x53,0x45,0x08,0x3a,0x0a,0x40,0x6e,0x61,0x6d,0x65,0x49,0x22,0x0d,0x6d,0x6f,0x6e,0x5f,0x77,0x61,0x72,0x70,0x06,0x3a,0x06,0x45,0x54,0x3a,0x0b,0x40,0x70,0x69,0x74,0x63,0x68,0x69,0x69,0x3a,0x0c,0x40,0x76,0x6f,0x6c,0x75,0x6d,0x65,0x69,0x55))
TeleportEvent(82,0,47,19,2)
Wait(60)
PictureDisplay(5,"80_grangold_st11",0,0,0,0,100,100,255,0)
ShowMessageFace("grangold_fc2",0,0,2,45)
ShowMessage("\\n<King of Grangold>.........")
If(0,6,0)
 ShowMessageFace("sonia_fc3",2,0,2,46)
 ShowMessage("\\n<Sonya>Whoa!")
 0()
Else()
 ShowMessageFace("ruka_fc1",0,0,2,47)
 ShowMessage("\\n<Luka>Whoa!")
 0()
EndIf()
ShowMessageFace("grangold_fc2",0,0,2,48)
ShowMessage("\\n<King of Grangold>I'm seething with rage...\nI can't believe they sullied my city with their invasion...")
ShowMessageFace("grangold_fc2",0,0,2,49)
ShowMessage("\\n<King of Grangold>I'm going to use this power of mine to wipe them off the face of the earth.")
If(0,6,0)
 ShowMessageFace("sonia_fc2",2,0,2,50)
 ShowMessage("\\n<Sonya>R-Really...?")
 0()
Else()
 ShowMessageFace("ruka_fc1",0,0,2,51)
 ShowMessage("\\n<Luka>R-Really...?")
 0()
EndIf()
ShowMessageFace("grangold_fc2",0,0,2,52)
ShowMessage("\\n<King of Grangold>To that end, would you let me join your party? Don't worry, I'll leave the decision-making to you.")
If(0,6,0)
 ShowMessageFace("sonia_fc3",2,0,2,53)
 ShowMessage("\\n<Sonya>Just don't flip out randomly on us!")
 0()
Else()
 ShowMessageFace("ruka_fc1",0,0,2,54)
 ShowMessage("\\n<Luka>You reverted to your former self...")
 0()
EndIf()
ShowMessageFace("grangold_fc2",0,0,2,55)
ShowMessage("\\n<King of Grangold>My apologies. My emotional control is still lacking. I was very angry for a while there, but I've managed to calm down.")
If(0,4,0)
 ShowMessageFace("alice_fc5",0,0,2,56)
 ShowMessage("\\n<Alice>That aside, what about your duties as king?")
 0()
EndIf()
If(0,5,0)
 ShowMessageFace("iriasu_fc4",2,0,2,57)
 ShowMessage("\\n<Ilias>That aside, what about your duties as king?")
 0()
EndIf()
ShowMessageFace("grangold_fc2",0,0,2,58)
ShowMessage("\\n<King of Grangold>My ministers are very capable. In fact, all I really do is affix my seal to documents. I would be far more useful in your quest to save the world.")
ShowMessageFace("grangold_fc2",0,0,2,59)
ShowMessage("\\n<King of Grangold>Therefore, I shall accompany you.\nYou have no need to worry. After all, I'm hardly the first royal companion in your party.")
PictureClear(5)
205(82,bytes(0x04,0x08,0x6f,0x3a,0x13,0x52,0x50,0x47,0x3a,0x3a,0x4d,0x6f,0x76,0x65,0x52,0x6f,0x75,0x74,0x65,0x09,0x3a,0x0c,0x40,0x72,0x65,0x70,0x65,0x61,0x74,0x46,0x3a,0x0f,0x40,0x73,0x6b,0x69,0x70,0x70,0x61,0x62,0x6c,0x65,0x46,0x3a,0x0a,0x40,0x77,0x61,0x69,0x74,0x54,0x3a,0x0a,0x40,0x6c,0x69,0x73,0x74,0x5b,0x0a,0x6f,0x3a,0x15,0x52,0x50,0x47,0x3a,0x3a,0x4d,0x6f,0x76,0x65,0x43,0x6f,0x6d,0x6d,0x61,0x6e,0x64,0x07,0x3a,0x0a,0x40,0x63,0x6f,0x64,0x65,0x69,0x2a,0x3a,0x10,0x40,0x70,0x61,0x72,0x61,0x6d,0x65,0x74,0x65,0x72,0x73,0x5b,0x00,0x6f,0x3b,0x0a,0x07,0x3b,0x0b,0x69,0x0f,0x3b,0x0c,0x5b,0x00,0x6f,0x3b,0x0a,0x07,0x3b,0x0b,0x69,0x0f,0x3b,0x0c,0x5b,0x00,0x6f,0x3b,0x0a,0x07,0x3b,0x0b,0x69,0x2c,0x3b,0x0c,0x5b,0x00,0x6f,0x3b,0x0a,0x07,0x3b,0x0b,0x69,0x00,0x3b,0x0c,0x5b,0x00))
505(bytes(0x04,0x08,0x6f,0x3a,0x15,0x52,0x50,0x47,0x3a,0x3a,0x4d,0x6f,0x76,0x65,0x43,0x6f,0x6d,0x6d,0x61,0x6e,0x64,0x07,0x3a,0x0a,0x40,0x63,0x6f,0x64,0x65,0x69,0x2a,0x3a,0x10,0x40,0x70,0x61,0x72,0x61,0x6d,0x65,0x74,0x65,0x72,0x73,0x5b,0x00))
505(bytes(0x04,0x08,0x6f,0x3a,0x15,0x52,0x50,0x47,0x3a,0x3a,0x4d,0x6f,0x76,0x65,0x43,0x6f,0x6d,0x6d,0x61,0x6e,0x64,0x07,0x3a,0x0a,0x40,0x63,0x6f,0x64,0x65,0x69,0x0f,0x3a,0x10,0x40,0x70,0x61,0x72,0x61,0x6d,0x65,0x74,0x65,0x72,0x73,0x5b,0x00))
505(bytes(0x04,0x08,0x6f,0x3a,0x15,0x52,0x50,0x47,0x3a,0x3a,0x4d,0x6f,0x76,0x65,0x43,0x6f,0x6d,0x6d,0x61,0x6e,0x64,0x07,0x3a,0x0a,0x40,0x63,0x6f,0x64,0x65,0x69,0x0f,0x3a,0x10,0x40,0x70,0x61,0x72,0x61,0x6d,0x65,0x74,0x65,0x72,0x73,0x5b,0x00))
505(bytes(0x04,0x08,0x6f,0x3a,0x15,0x52,0x50,0x47,0x3a,0x3a,0x4d,0x6f,0x76,0x65,0x43,0x6f,0x6d,0x6d,0x61,0x6e,0x64,0x07,0x3a,0x0a,0x40,0x63,0x6f,0x64,0x65,0x69,0x2c,0x3a,0x10,0x40,0x70,0x61,0x72,0x61,0x6d,0x65,0x74,0x65,0x72,0x73,0x5b,0x00))
355("add_actor_ex(535)")
249(bytes(0x04,0x08,0x6f,0x3a,0x0c,0x52,0x50,0x47,0x3a,0x3a,0x4d,0x45,0x08,0x3a,0x0a,0x40,0x6e,0x61,0x6d,0x65,0x49,0x22,0x0c,0x66,0x61,0x6e,0x66,0x61,0x6c,0x65,0x06,0x3a,0x06,0x45,0x54,0x3a,0x0b,0x40,0x70,0x69,0x74,0x63,0x68,0x69,0x69,0x3a,0x0c,0x40,0x76,0x6f,0x6c,0x75,0x6d,0x65,0x69,0x69))
ShowMessageFace("",0,0,2,60)
ShowMessage("The King of Grangold has joined the party!")
Wait(60)
If(0,6,0)
 ShowMessageFace("sonia_fc4",0,0,2,61)
 ShowMessage("\\n<Sonya>Do we really have nothing to worry about with him?")
 0()
Else()
 ShowMessageFace("ruka_fc1",0,0,2,62)
 ShowMessage("\\n<Luka>I really hope this works out...")
 0()
EndIf()
If(0,4,0)
 ShowMessageFace("alice_fc5",1,0,2,63)
 ShowMessage("\\n<Alice>Anyway, we've defended Grangold for now, but as long as the Spider Princess remains at large, the attacks will continue.")
 0()
EndIf()
If(0,5,0)
 ShowMessageFace("iriasu_fc4",0,0,2,64)
 ShowMessage("\\n<Ilias>Anyway, we have defended Grangold for now, but as long as the Spider Princess lives, the attacks will continue.")
 0()
EndIf()
ChangeSwitch(2164,2164,0)
314(0,0)
RunCommonEvent(328)
If(0,2273,0)
 EndEventProcessing()
 0()
EndIf()
ShowMessageFace("ruka_fc1",0,0,2,65)
ShowMessage("\\n<Luka>Nonetheless, let's move on!\nThere are still other countries under attack!")
221()
ShowMessageFace("",0,0,2,66)
ShowMessage("Thus, we repelled the spider army. However, there's no time to celebrate as we leave Grangold behind.")
ShowMessageFace("",0,0,2,67)
ShowMessage("The Monster Lord's grand offensive is against all four major powers. It will take everything we've got to defend them all.")
Wait(60)
ChangeSwitch(31,31,1)
ChangeSwitch(32,32,1)
ChangeSwitch(33,33,1)
ChangeSwitch(34,34,1)
ChangeSwitch(37,37,1)
TeleportPlayer(0,2,234,154,2,0)
222()
EndEventProcessing()
0()
