// EVENT 3075
Name "Ghost"

If(0,25,1)
 JumpToLabel("反省会")
 0()
EndIf()
PictureDisplay(5,"80_ghost_st02",0,0,0,0,100,100,0,0)
PictureMove(5,null,0,0,0,0,100,100,255,0,30,true)
241(bytes(0x04,0x08,0x6f,0x3a,0x0d,0x52,0x50,0x47,0x3a,0x3a,0x42,0x47,0x4d,0x08,0x3a,0x0a,0x40,0x6e,0x61,0x6d,0x65,0x49,0x22,0x09,0x65,0x72,0x6f,0x31,0x06,0x3a,0x06,0x45,0x54,0x3a,0x0c,0x40,0x76,0x6f,0x6c,0x75,0x6d,0x65,0x69,0x69,0x3a,0x0b,0x40,0x70,0x69,0x74,0x63,0x68,0x69,0x69))
ShowMessageFace("",0,0,2,1)
ShowMessage("\\n<Luka>Auuu...")
ShowMessageFace("ghost_fc1",1,0,2,2)
ShowMessage("\\n<Ghost Girl>You're so full of life... I'll make you yield all your energy...")
245(bytes(0x04,0x08,0x6f,0x3a,0x0d,0x52,0x50,0x47,0x3a,0x3a,0x42,0x47,0x53,0x08,0x3a,0x0a,0x40,0x6e,0x61,0x6d,0x65,0x49,0x22,0x1e,0x6d,0x6f,0x6e,0x5f,0x68,0x73,0x65,0x61,0x6e,0x30,0x31,0x5f,0x69,0x6e,0x6e,0x65,0x72,0x77,0x6f,0x72,0x6b,0x73,0x5f,0x61,0x31,0x06,0x3a,0x06,0x45,0x54,0x3a,0x0c,0x40,0x76,0x6f,0x6c,0x75,0x6d,0x65,0x69,0x55,0x3a,0x0b,0x40,0x70,0x69,0x74,0x63,0x68,0x69,0x69))
PictureDisplay(5,"ev_ghost_h1",0,0,0,0,100,100,255,0)
PictureDisplay(6,"ev_ghost_ct01",0,0,0,0,100,100,255,0)
ShowMessageFace("",0,0,2,3)
ShowMessage("The Ghost Girl advances on me as sit up and struggle to get back on my feet. Her ethereal form draws my lower body into her waist as I feel myself practically meld into her.")
ShowMessageFace("",0,0,2,4)
ShowMessage("\\n<Luka>Aaaaah...!")
ShowMessageFace("",0,0,2,5)
ShowMessage("I feel my clothes dissipate wherever they come into contact with her as my penis suddenly finds itself surging to full erection inside of her body.")
ShowMessageFace("",0,0,2,6)
ShowMessage("I can feel sticky fluids coat my penis as the mass surrounding my penis pulses and heats up. The alien sensations the Ghost is inflicting me with sends shivers through me while my penis twitches in excitement.")
ShowMessageFace("ghost_fc1",1,0,2,7)
ShowMessage("\\n<Ghost Girl>So much energy... More than enough to spare...")
ShowMessageFace("",0,0,2,8)
ShowMessage("The Ghost Girl begins shifting her insides around my penis into a more substantial form for stimulating my body. I feel her depths strongly grip my length and give it a few experiment jerks that extract a moan from me.")
ShowMessageFace("",0,0,2,9)
ShowMessage("\\n<Luka>Aaaa...")
ShowMessageFace("",0,0,2,10)
ShowMessage("Confident that she has me firmly in her grasp, she wastes no time in pumping my cock as it is drenched in more of her juices.")
ShowMessageFace("",0,0,2,11)
ShowMessage("Her cold insides contrast with the rising warmth that builds from the friction between each pump of my penis against her flesh.")
ShowMessageFace("",0,0,2,12)
ShowMessage("The pleasure that forces its way into me with each motion passes the boundary from being a purely physical act as I feel my very essence being tainted by her lustful embrace.")
ShowMessageFace("ghost_fc1",1,0,2,13)
ShowMessage("\\n<Ghost Girl>Release your energy into me...")
ShowMessageFace("",0,0,2,14)
ShowMessage("\\n<Luka>Faaa...")
ShowMessageFace("",0,0,2,15)
ShowMessage("Her insides continue to shift around my member as she constantly renews her grasp and strokes my penis in different ways, always with increasing strength and speed.")
ShowMessageFace("",0,0,2,16)
ShowMessage("Her unpredictable wringing of my penis subverts any resistance I could offer as my body writhes from the pleasure racking my body.")
ShowMessageFace("ghost_fc1",1,0,2,17)
ShowMessage("\\n<Ghost Girl>Such warmth... Such energy...")
ShowMessageFace("",0,0,2,18)
ShowMessage("The Ghost Girl suddenly solidifies her passage and squeezes my penis fiercely from base to tip. The substantial assault takes me by surprise as I feel her brutal milking motions cause my body to seize.")
ShowMessageFace("",0,0,2,19)
ShowMessage("Her form oozes over my waist as she begins to bodily thrust me further inside her, adding to the already overbearing stimulation being forced into me. My waist involuntarily thrusts upward as I feel my orgasm blast through me.")
ShowMessageFace("",0,0,2,20)
ShowMessage("\\n<Luka>Aaaa!!")
RunCommonEvent(104)
RunCommonEvent(105)
PictureDisplay(10,"sys_white",0,0,0,0,100,100,0,0)
PictureMove(10,null,0,0,0,0,100,100,255,0,20,true)
PictureDisplay(5,"ev_ghost_h2",0,0,0,0,100,100,255,0)
PictureDisplay(6,"ev_ghost_ct02",0,0,0,0,100,100,255,0)
250(bytes(0x04,0x08,0x6f,0x3a,0x0c,0x52,0x50,0x47,0x3a,0x3a,0x53,0x45,0x08,0x3a,0x0a,0x40,0x6e,0x61,0x6d,0x65,0x49,0x22,0x0f,0x6d,0x6f,0x6e,0x5f,0x73,0x79,0x61,0x73,0x65,0x69,0x06,0x3a,0x06,0x45,0x54,0x3a,0x0b,0x40,0x70,0x69,0x74,0x63,0x68,0x69,0x69,0x3a,0x0c,0x40,0x76,0x6f,0x6c,0x75,0x6d,0x65,0x69,0x69))
PictureMove(10,null,0,0,0,0,100,100,0,0,25,true)
PictureMove(10,null,0,0,0,0,100,100,255,0,20,true)
PictureMove(10,null,0,0,0,0,100,100,0,0,25,true)
PictureMove(10,null,0,0,0,0,100,100,255,0,6,true)
PictureMove(10,null,0,0,0,0,100,100,0,0,60,true)
ShowMessageFace("",0,0,2,21)
ShowMessage("I feel my body grow weak and cold as my semen spurts out into the Ghost Girl's passage. Each pulse of my penis feels as though it slows the pulse of my heart itself.")
ShowMessageFace("",0,0,2,22)
ShowMessage("\\n<Luka>Aa... Faa...")
ShowMessageFace("",0,0,2,23)
ShowMessage("Hopelessness overtakes me as my body trembles in despair at being raped by this incorporeal monster.")
ShowMessageFace("",0,0,2,24)
ShowMessage("Forcibly restrained and overpowered, I can feel her resume her motions...")
ShowMessageFace("ghost_fc1",1,0,2,25)
ShowMessage("\\n<Ghost Girl>More warmth... More energy... Keep coming...")
245(bytes(0x04,0x08,0x6f,0x3a,0x0d,0x52,0x50,0x47,0x3a,0x3a,0x42,0x47,0x53,0x08,0x3a,0x0a,0x40,0x6e,0x61,0x6d,0x65,0x49,0x22,0x1e,0x6d,0x6f,0x6e,0x5f,0x68,0x73,0x65,0x61,0x6e,0x30,0x34,0x5f,0x69,0x6e,0x6e,0x65,0x72,0x77,0x6f,0x72,0x6b,0x73,0x5f,0x61,0x34,0x06,0x3a,0x06,0x45,0x54,0x3a,0x0c,0x40,0x76,0x6f,0x6c,0x75,0x6d,0x65,0x69,0x55,0x3a,0x0b,0x40,0x70,0x69,0x74,0x63,0x68,0x69,0x69))
ShowMessageFace("",0,0,2,26)
ShowMessage("The Ghost Girl relentlessly pumps me the moment my orgasm subsides, seemingly driven by a near-primal need for energy and semen. She mercilessly squeezes down on me to extract as many orgasms as she can.")
ShowMessageFace("",0,0,2,27)
ShowMessage("She never relinquishes my penis throughout the morbid copulation and always keeps me firmly held inside so she can milk me continuously.")
ShowMessageFace("",0,0,2,28)
ShowMessage("Maddening sensations flow through me from the combination of her harsh pumping and her viscous fluids soaking my penis.")
ShowMessageFace("",0,0,2,29)
ShowMessage("\\n<Luka>Faaa...")
ShowMessageFace("",0,0,2,30)
ShowMessage("The temptation to give in and thrust my waist into her cold, grasping flesh takes root in my mind. The endless milking of my length gradually clouds my judgement.")
ShowMessageFace("",0,0,2,31)
ShowMessage("Ecstatic pleasure courses through me as I feel my hips begin thrusting upwards into her, seemingly out of my control. My lower body has seemingly fallen under her possession as I lose any sense of control.")
ShowMessageFace("",0,0,2,32)
ShowMessage("The Ghost Girl's rape steals my semen, my energy and soon my body and soul along with it...")
ShowMessageFace("ghost_fc1",1,0,2,33)
ShowMessage("\\n<Ghost Girl>Keep going, pour it all into me... I'll help... Show you how... Give me control...")
ShowMessageFace("",0,0,2,34)
ShowMessage("\\n<Luka>Ahh... I'm coming again... Ahhh!!")
RunCommonEvent(104)
PictureDisplay(5,"ev_ghost_h3",0,0,0,0,100,100,255,0)
PictureDisplay(6,"ev_ghost_ct03",0,0,0,0,100,100,255,0)
RunCommonEvent(105)
ShowMessageFace("",0,0,2,35)
ShowMessage("My mind reels at the strange sensation of feeling my waist continue to thrust up into her through my ejaculation. Each spurt of my semen seems strengthened as though her possession empowers my member for a singular purpose.")
ShowMessageFace("",0,0,2,36)
ShowMessage("My will to resist shatters as I gradually lose control of my body...")
ShowMessageFace("ghost_fc1",1,0,2,37)
ShowMessage("\\n<Ghost Girl>Give everything to me... All your warmth... All your energy...")
ShowMessageFace("",0,0,2,38)
ShowMessage("\\n<Luka>Aaaa...")
ShowMessageFace("",0,0,2,39)
ShowMessage("My body convulses from torturous overstimulation as my penis continues to emptily pulse despite my orgasm subsiding. The Ghost Girl wills me to ejaculate in the face of my body's need to rest.")
ShowMessageFace("",0,0,2,40)
ShowMessage("Her possession increases in strength as I feel her will manifest itself as it forces an ejaculation from me. My cock achingly burn as it twitches endlessly, shooting more of my sperm and energy out.")
ShowMessageFace("",0,0,2,41)
ShowMessage("\\n<Luka>Aaah... Already... again...!")
RunCommonEvent(104)
PictureDisplay(5,"ev_ghost_h4",0,0,0,0,100,100,255,0)
PictureDisplay(6,"ev_ghost_ct04",0,0,0,0,100,100,255,0)
RunCommonEvent(105)
ShowMessageFace("",0,0,2,42)
ShowMessage("The ejaculation lasts longer than before as more semen is extracted from me. Her control over my body is undeniable as I feel cold numbness spread through me.")
ShowMessageFace("",0,0,2,43)
ShowMessage("I can hardly feel anything at all except for the pleasure being driven into me. Fear at the Ghost Girl's command over my body drifts away from my conscious mind...")
ShowMessageFace("ghost_fc1",1,0,2,44)
ShowMessage("\\n<Ghost Girl>Come... Pour everything into me...")
ShowMessageFace("",0,0,2,45)
ShowMessage("\\n<Luka>Auuu... Everything... Coming...")
RunCommonEvent(104)
RunCommonEvent(105)
ShowMessageFace("",0,0,2,46)
ShowMessage("My penis continues to let loose shot after shot of semen as she submerges more of my body into herself. Eventually my orgasm tapers off with a final pulse as I feel my penis suddenly give a powerful twitch.")
ShowMessageFace("",0,0,2,47)
ShowMessage("My penis begins instantly ejaculating again. It feels as is my recent climax never even ended and merely shifted into another one as I feel myself endlessly coming inside of her...")
ShowMessageFace("",0,0,2,48)
ShowMessage("My semen is ceaselessly extracted from me as I'm trapped in this perpetual state of ejaculation.")
ShowMessageFace("",0,0,2,49)
ShowMessage("My body twitches in her grasp while my body goes increasingly numb and my heartbeat slows with every passing moment...")
ShowMessageFace("",0,0,2,50)
ShowMessage("I'm unable to fight back as I'm immersed in pleasure with my body's control taken from me...")
ShowMessageFace("ghost_fc1",1,0,2,51)
ShowMessage("\\n<Ghost Girl>All of it... Every drop... Even your very existence...")
ShowMessageFace("",0,0,2,52)
ShowMessage("\\n<Luka>Auuu...")
RunCommonEvent(104)
RunCommonEvent(105)
ShowMessageFace("",0,0,2,53)
ShowMessage("With her complete mastery over my body, she wills me to orgasm after orgasm...")
ShowMessageFace("",0,0,2,54)
ShowMessage("My vision starts to fade as my body goes completely slack save for my penis being kept rigidly erect by the Ghost Girl's command.")
ShowMessageFace("ghost_fc1",1,0,2,55)
ShowMessage("\\n<Ghost Girl>You still have more to give... I can feel life still in you...")
ShowMessageFace("",0,0,2,56)
ShowMessage("\\n<Luka>Aaa...")
RunCommonEvent(104)
RunCommonEvent(105)
ShowMessageFace("",0,0,2,57)
ShowMessage("My world fades to darkness as my penis continues to let loose shot after shot inside the Ghost Girl.")
ShowMessageFace("",0,0,2,58)
ShowMessage("I can't even lift a finger anymore... The Ghost Girl has sucked up my life itself...")
ShowMessageFace("ghost_fc1",1,0,2,59)
ShowMessage("\\n<Ghost Girl>That's everything...")
ShowMessageFace("",0,0,2,60)
ShowMessage("The last thing I hear is the Ghost Girl's voice...")
221()
PictureClear(5)
PictureClear(6)
246(2)
ShowMessageFace("",0,0,2,61)
ShowMessage("Like that, my life has been sucked out by the Ghost Girl.")
ShowMessage("Paralyzed by pleasure, she slowly stole my life...")
ShowMessageFace("",0,0,2,62)
ShowMessage("Thus, another adventurer was made into the Ghost Girl's prey.")
DefineLabel("反省会")
ShowMessageFace("",0,0,2,63)
ShowMessage("..................")
221()
242(1)
Wait(120)
355("memory_interruption")
ShowMessageFace("",0,0,2,64)
ShowMessage("You hear Ilias' voice calling out to you...")
ShowMessage("Receive her evaluation?")
ShowChoices(strings("Receive Evaluation","Change Difficulty","Reincarnate"),3)
IfPlayerPicksChoice(0,null)
 241(bytes(0x04,0x08,0x6f,0x3a,0x0d,0x52,0x50,0x47,0x3a,0x3a,0x42,0x47,0x4d,0x08,0x3a,0x0a,0x40,0x6e,0x61,0x6d,0x65,0x49,0x22,0x0a,0x69,0x72,0x69,0x61,0x73,0x06,0x3a,0x06,0x45,0x54,0x3a,0x0c,0x40,0x76,0x6f,0x6c,0x75,0x6d,0x65,0x69,0x5f,0x3a,0x0b,0x40,0x70,0x69,0x74,0x63,0x68,0x69,0x6e))
 PictureDisplay(1,"bg001",0,0,0,0,100,100,255,0)
 222()
 PictureDisplay(5,"80_iriasu_st04",0,0,0,0,100,100,0,0)
 PictureMove(5,null,0,0,0,0,100,100,255,0,30,true)
 ShowMessageFace("iriasu_fc1",3,0,2,65)
 ShowMessage("\\n<Ilias>Violated by a ghost... \nSuch a pathetic Hero.")
 PictureDisplay(5,"80_iriasu_st01",0,0,0,0,100,100,255,0)
 ShowMessageFace("iriasu_fc1",0,0,2,66)
 ShowMessage("\\n<Ilias>Ghost Girl uses Pleasure and Fire attacks. \nDon't have any party members that are weak against Fire.")
 ShowMessageFace("iriasu_fc1",0,0,2,67)
 ShowMessage("\\n<Ilias>Also, keep in mind she has HP-draining attacks. \nThe Ghost Girl is also weak to Fire so use that to your advantage.")
 ShowMessageFace("iriasu_fc1",0,0,2,68)
 ShowMessage("\\n<Ilias>Silence, Confusion and Sleep are also somewhat effective... \nPleasure attacks don't work on her because of her immaterial body.")
 PictureDisplay(5,"80_iriasu_st02",0,0,0,0,100,100,255,0)
 ShowMessageFace("iriasu_fc1",1,0,2,69)
 ShowMessage("\\n<Ilias>Now go, oh brave Luka.\nSend that abominable Ghost Girl to the afterlife.")
 242(1)
 221()
 PictureClear(5)
 PictureClear(1)
 Wait(60)
 0()
IfPlayerPicksChoice(1,null)
 ShowMessageFace("",0,0,2,70)
 ShowMessage("Please choose a difficulty level.")
 RunCommonEvent(110)
 0()
IfPlayerPicksChoice(2,null)
 0()
404()
RunCommonEvent(3000)
0()
